%!PS-Adobe-2.0 EPSF-2.0
%%Creator: OKS Library, <Igor.Soloviev@cern.ch>, CERN
%%Title: unknown
%%BoundingBox: 20 40 793 548
%%Pages: 1
%%DocumentFonts: Helvetica-Narrow Times-Roman Helvetica
%%EndComments

% set image font
/Helvetica-Narrow findfont
7.91 scalefont
setfont

% draw in landscape mode
90 rotate  0 -595 translate

gsave
0.66 setlinewidth
0.00 0.00 0.00 setrgbcolor
 273.67 334.52 moveto 268.40 323.98 lineto stroke
 273.67 334.52 moveto 278.94 323.98 lineto stroke
 268.40 323.98 moveto 278.94 323.98 lineto stroke
 273.67 323.98 moveto 273.67 276.54 lineto stroke
 273.67 276.54 moveto 325.06 276.54 lineto stroke
 325.06 276.54 moveto 325.06 268.63 lineto stroke
 358.67 258.09 moveto 540.52 258.09 lineto stroke
 347.47 268.63 moveto 347.47 358.90 lineto stroke
 347.47 358.90 moveto 504.94 358.90 lineto stroke
 339.56 245.57 moveto 334.29 235.03 lineto stroke
 339.56 245.57 moveto 344.83 235.03 lineto stroke
 334.29 235.03 moveto 344.83 235.03 lineto stroke
 339.56 235.03 moveto 339.56 213.95 lineto stroke
 339.56 213.95 moveto 717.76 213.95 lineto stroke
 717.76 213.95 moveto 717.76 109.84 lineto stroke
 339.56 245.57 moveto 334.29 235.03 lineto stroke
 339.56 245.57 moveto 344.83 235.03 lineto stroke
 334.29 235.03 moveto 344.83 235.03 lineto stroke
 339.56 235.03 moveto 339.56 213.95 lineto stroke
 339.56 213.95 moveto 355.37 213.95 lineto stroke
 355.37 213.95 moveto 355.37 166.51 lineto stroke
 339.56 245.57 moveto 334.29 235.03 lineto stroke
 339.56 245.57 moveto 344.83 235.03 lineto stroke
 334.29 235.03 moveto 344.83 235.03 lineto stroke
 339.56 235.03 moveto 339.56 213.95 lineto stroke
 339.56 213.95 moveto 319.13 213.95 lineto stroke
 319.13 213.95 moveto 319.13 166.51 lineto stroke
 194.60 366.81 moveto 91.82 366.81 lineto stroke
 91.82 366.81 moveto 91.82 347.70 lineto stroke
 91.82 347.70 moveto 194.60 347.70 lineto stroke
 194.60 405.68 moveto 91.82 405.68 lineto stroke
 91.82 405.68 moveto 91.82 385.26 lineto stroke
 91.82 385.26 moveto 194.60 385.26 lineto stroke
 651.87 493.97 moveto 647.92 488.04 lineto stroke
 651.87 493.97 moveto 655.82 488.04 lineto stroke
 647.92 488.04 moveto 651.87 482.11 lineto stroke
 655.82 488.04 moveto 651.87 482.11 lineto stroke
 651.87 482.11 moveto 651.87 434.01 lineto stroke
 651.87 434.01 moveto 333.63 434.01 lineto stroke
 273.67 334.52 moveto 268.40 323.98 lineto stroke
 273.67 334.52 moveto 278.94 323.98 lineto stroke
 268.40 323.98 moveto 278.94 323.98 lineto stroke
 273.67 323.98 moveto 273.67 276.54 lineto stroke
 273.67 276.54 moveto 220.30 276.54 lineto stroke
 220.30 276.54 moveto 220.30 267.97 lineto stroke
 553.70 347.04 moveto 548.43 336.50 lineto stroke
 553.70 347.04 moveto 558.97 336.50 lineto stroke
 548.43 336.50 moveto 558.97 336.50 lineto stroke
 553.70 336.50 moveto 553.70 292.35 lineto stroke
 625.51 349.68 moveto 625.51 292.35 lineto stroke
 553.70 347.04 moveto 548.43 336.50 lineto stroke
 553.70 347.04 moveto 558.97 336.50 lineto stroke
 548.43 336.50 moveto 558.97 336.50 lineto stroke
 553.70 336.50 moveto 553.70 312.78 lineto stroke
 553.70 312.78 moveto 533.27 312.78 lineto stroke
 516.80 322.00 moveto 516.80 347.04 lineto stroke
 612.34 360.22 moveto 606.41 356.26 lineto stroke
 612.34 360.22 moveto 606.41 364.17 lineto stroke
 606.41 356.26 moveto 600.48 360.22 lineto stroke
 606.41 364.17 moveto 600.48 360.22 lineto stroke
 600.48 360.22 moveto 566.22 360.22 lineto stroke
 707.88 493.97 moveto 707.88 403.70 lineto stroke
 707.88 403.70 moveto 537.22 403.70 lineto stroke
 537.22 403.70 moveto 537.22 370.10 lineto stroke
 331.65 86.78 moveto 326.38 76.24 lineto stroke
 331.65 86.78 moveto 336.92 76.24 lineto stroke
 326.38 76.24 moveto 336.92 76.24 lineto stroke
 331.65 76.24 moveto 331.65 70.97 lineto stroke
 331.65 70.97 moveto 382.39 70.97 lineto stroke
 382.39 70.97 moveto 382.39 65.70 lineto stroke
 429.17 143.44 moveto 423.90 132.90 lineto stroke
 429.17 143.44 moveto 434.44 132.90 lineto stroke
 423.90 132.90 moveto 434.44 132.90 lineto stroke
 429.17 132.90 moveto 429.17 65.70 lineto stroke
 628.81 141.47 moveto 623.54 130.93 lineto stroke
 628.81 141.47 moveto 634.08 130.93 lineto stroke
 623.54 130.93 moveto 634.08 130.93 lineto stroke
 628.81 130.93 moveto 628.81 120.38 lineto stroke
 628.81 120.38 moveto 699.31 120.38 lineto stroke
 699.31 120.38 moveto 699.31 109.84 lineto stroke
 691.40 86.78 moveto 686.13 76.24 lineto stroke
 691.40 86.78 moveto 696.67 76.24 lineto stroke
 686.13 76.24 moveto 696.67 76.24 lineto stroke
 691.40 76.24 moveto 691.40 70.31 lineto stroke
 628.81 141.47 moveto 623.54 130.93 lineto stroke
 628.81 141.47 moveto 634.08 130.93 lineto stroke
 623.54 130.93 moveto 634.08 130.93 lineto stroke
 628.81 130.93 moveto 628.81 120.38 lineto stroke
 628.81 120.38 moveto 572.80 120.38 lineto stroke
 572.80 120.38 moveto 572.80 109.18 lineto stroke
 559.63 86.12 moveto 554.36 75.58 lineto stroke
 559.63 86.12 moveto 564.90 75.58 lineto stroke
 554.36 75.58 moveto 564.90 75.58 lineto stroke
 559.63 75.58 moveto 559.63 66.36 lineto stroke
 209.10 221.19 moveto 203.83 210.65 lineto stroke
 209.10 221.19 moveto 214.37 210.65 lineto stroke
 203.83 210.65 moveto 214.37 210.65 lineto stroke
 209.10 210.65 moveto 209.10 204.72 lineto stroke
 209.10 204.72 moveto 524.05 204.72 lineto stroke
 524.05 204.72 moveto 524.05 109.18 lineto stroke
 331.65 86.78 moveto 326.38 76.24 lineto stroke
 331.65 86.78 moveto 336.92 76.24 lineto stroke
 326.38 76.24 moveto 336.92 76.24 lineto stroke
 331.65 76.24 moveto 331.65 70.97 lineto stroke
 331.65 70.97 moveto 287.51 70.97 lineto stroke
 287.51 70.97 moveto 287.51 65.04 lineto stroke
 274.33 117.75 moveto 263.79 112.48 lineto stroke
 274.33 117.75 moveto 263.79 123.02 lineto stroke
 263.79 123.02 moveto 263.79 112.48 lineto stroke
 263.79 117.75 moveto 38.45 117.75 lineto stroke
 38.45 117.75 moveto 38.45 416.88 lineto stroke
 222.28 173.09 moveto 217.01 162.55 lineto stroke
 222.28 173.09 moveto 227.55 162.55 lineto stroke
 217.01 162.55 moveto 227.55 162.55 lineto stroke
 222.28 162.55 moveto 222.28 65.04 lineto stroke
 372.50 455.10 moveto 367.23 444.56 lineto stroke
 372.50 455.10 moveto 377.77 444.56 lineto stroke
 367.23 444.56 moveto 377.77 444.56 lineto stroke
 372.50 444.56 moveto 372.50 186.93 lineto stroke
 372.50 186.93 moveto 398.86 186.93 lineto stroke
 398.86 186.93 moveto 398.86 166.51 lineto stroke
 372.50 455.10 moveto 367.23 444.56 lineto stroke
 372.50 455.10 moveto 377.77 444.56 lineto stroke
 367.23 444.56 moveto 377.77 444.56 lineto stroke
 372.50 444.56 moveto 372.50 186.93 lineto stroke
 372.50 186.93 moveto 311.23 186.93 lineto stroke
 640.67 503.85 moveto 507.57 503.85 lineto stroke
 209.10 221.19 moveto 203.83 210.65 lineto stroke
 209.10 221.19 moveto 214.37 210.65 lineto stroke
 203.83 210.65 moveto 214.37 210.65 lineto stroke
 209.10 210.65 moveto 209.10 196.16 lineto stroke
 679.54 361.54 moveto 638.69 361.54 lineto stroke
 50.97 416.88 moveto 45.70 406.34 lineto stroke
 50.97 416.88 moveto 56.24 406.34 lineto stroke
 45.70 406.34 moveto 56.24 406.34 lineto stroke
 50.97 406.34 moveto 50.97 154.65 lineto stroke
 50.97 154.65 moveto 240.07 154.65 lineto stroke
 65.46 416.88 moveto 60.19 406.34 lineto stroke
 65.46 416.88 moveto 70.73 406.34 lineto stroke
 60.19 406.34 moveto 70.73 406.34 lineto stroke
 65.46 406.34 moveto 65.46 196.81 lineto stroke
 640.67 532.85 moveto 121.47 532.85 lineto stroke
 121.47 532.85 moveto 121.47 499.24 lineto stroke
 209.10 221.19 moveto 203.83 210.65 lineto stroke
 209.10 221.19 moveto 214.37 210.65 lineto stroke
 203.83 210.65 moveto 214.37 210.65 lineto stroke
 209.10 210.65 moveto 209.10 204.72 lineto stroke
 209.10 204.72 moveto 85.89 204.72 lineto stroke
 85.89 204.72 moveto 85.89 196.81 lineto stroke
 736.87 497.92 moveto 742.80 493.97 lineto stroke
 736.87 497.92 moveto 742.80 501.88 lineto stroke
 742.80 493.97 moveto 748.73 497.92 lineto stroke
 742.80 501.88 moveto 748.73 497.92 lineto stroke
 748.73 497.92 moveto 788.92 497.92 lineto stroke
 788.92 497.92 moveto 788.92 519.01 lineto stroke
 788.92 519.01 moveto 736.87 519.01 lineto stroke
 725.67 493.97 moveto 720.39 483.43 lineto stroke
 725.67 493.97 moveto 730.94 483.43 lineto stroke
 720.39 483.43 moveto 730.94 483.43 lineto stroke
 725.67 483.43 moveto 725.67 374.05 lineto stroke
grestore
gsave
1.32 setlinewidth
0.00 0.00 0.00 setrgbcolor
 680.20 373.40 moveto 751.36 373.40 lineto stroke
 751.36 373.40 moveto 751.36 351.65 lineto stroke
 680.20 373.40 moveto 680.20 351.65 lineto stroke
 680.20 351.65 moveto 751.36 351.65 lineto stroke
 680.20 358.24 moveto 751.36 358.24 lineto stroke
 680.20 355.61 moveto 751.36 355.61 lineto stroke
 160.34 267.32 moveto 288.82 267.32 lineto stroke
 288.82 267.32 moveto 288.82 221.85 lineto stroke
 160.34 267.32 moveto 160.34 221.85 lineto stroke
 160.34 221.85 moveto 288.82 221.85 lineto stroke
 160.34 252.16 moveto 288.82 252.16 lineto stroke
 160.34 225.81 moveto 288.82 225.81 lineto stroke
 641.33 540.09 moveto 736.21 540.09 lineto stroke
 736.21 540.09 moveto 736.21 494.63 lineto stroke
 641.33 540.09 moveto 641.33 494.63 lineto stroke
 641.33 494.63 moveto 736.21 494.63 lineto stroke
 641.33 524.94 moveto 736.21 524.94 lineto stroke
 641.33 522.30 moveto 736.21 522.30 lineto stroke
 54.92 196.16 moveto 176.81 196.16 lineto stroke
 176.81 196.16 moveto 176.81 174.41 lineto stroke
 54.92 196.16 moveto 54.92 174.41 lineto stroke
 54.92 174.41 moveto 176.81 174.41 lineto stroke
 54.92 181.00 moveto 176.81 181.00 lineto stroke
 54.92 178.37 moveto 176.81 178.37 lineto stroke
 28.57 498.58 moveto 165.61 498.58 lineto stroke
 165.61 498.58 moveto 165.61 417.54 lineto stroke
 28.57 498.58 moveto 28.57 417.54 lineto stroke
 28.57 417.54 moveto 165.61 417.54 lineto stroke
 28.57 483.43 moveto 165.61 483.43 lineto stroke
 28.57 421.49 moveto 165.61 421.49 lineto stroke
 240.73 165.85 moveto 329.68 165.85 lineto stroke
 329.68 165.85 moveto 329.68 144.10 lineto stroke
 240.73 165.85 moveto 240.73 144.10 lineto stroke
 240.73 144.10 moveto 329.68 144.10 lineto stroke
 240.73 150.69 moveto 329.68 150.69 lineto stroke
 240.73 148.06 moveto 329.68 148.06 lineto stroke
 613.00 372.08 moveto 638.03 372.08 lineto stroke
 638.03 372.08 moveto 638.03 350.33 lineto stroke
 613.00 372.08 moveto 613.00 350.33 lineto stroke
 613.00 350.33 moveto 638.03 350.33 lineto stroke
 613.00 356.92 moveto 638.03 356.92 lineto stroke
 613.00 354.29 moveto 638.03 354.29 lineto stroke
 514.82 65.70 moveto 612.34 65.70 lineto stroke
 612.34 65.70 moveto 612.34 43.95 lineto stroke
 514.82 65.70 moveto 514.82 43.95 lineto stroke
 514.82 43.95 moveto 612.34 43.95 lineto stroke
 514.82 50.54 moveto 612.34 50.54 lineto stroke
 514.82 47.91 moveto 612.34 47.91 lineto stroke
 665.71 69.65 moveto 730.28 69.65 lineto stroke
 730.28 69.65 moveto 730.28 47.91 lineto stroke
 665.71 69.65 moveto 665.71 47.91 lineto stroke
 665.71 47.91 moveto 730.28 47.91 lineto stroke
 665.71 54.50 moveto 730.28 54.50 lineto stroke
 665.71 51.86 moveto 730.28 51.86 lineto stroke
 182.09 195.50 moveto 310.57 195.50 lineto stroke
 310.57 195.50 moveto 310.57 173.75 lineto stroke
 182.09 195.50 moveto 182.09 173.75 lineto stroke
 182.09 173.75 moveto 310.57 173.75 lineto stroke
 182.09 180.34 moveto 310.57 180.34 lineto stroke
 182.09 177.71 moveto 310.57 177.71 lineto stroke
 354.71 513.08 moveto 506.92 513.08 lineto stroke
 506.92 513.08 moveto 506.92 455.76 lineto stroke
 354.71 513.08 moveto 354.71 455.76 lineto stroke
 354.71 455.76 moveto 506.92 455.76 lineto stroke
 354.71 497.92 moveto 506.92 497.92 lineto stroke
 354.71 459.71 moveto 506.92 459.71 lineto stroke
 347.47 165.85 moveto 443.00 165.85 lineto stroke
 443.00 165.85 moveto 443.00 144.10 lineto stroke
 347.47 165.85 moveto 347.47 144.10 lineto stroke
 347.47 144.10 moveto 443.00 144.10 lineto stroke
 347.47 150.69 moveto 443.00 150.69 lineto stroke
 347.47 148.06 moveto 443.00 148.06 lineto stroke
 193.95 64.38 moveto 316.50 64.38 lineto stroke
 316.50 64.38 moveto 316.50 42.64 lineto stroke
 193.95 64.38 moveto 193.95 42.64 lineto stroke
 193.95 42.64 moveto 316.50 42.64 lineto stroke
 193.95 49.22 moveto 316.50 49.22 lineto stroke
 193.95 46.59 moveto 316.50 46.59 lineto stroke
 274.99 132.90 moveto 413.35 132.90 lineto stroke
 413.35 132.90 moveto 413.35 87.44 lineto stroke
 274.99 132.90 moveto 274.99 87.44 lineto stroke
 274.99 87.44 moveto 413.35 87.44 lineto stroke
 274.99 117.75 moveto 413.35 117.75 lineto stroke
 274.99 91.39 moveto 413.35 91.39 lineto stroke
 490.44 108.52 moveto 626.17 108.52 lineto stroke
 626.17 108.52 moveto 626.17 86.78 lineto stroke
 490.44 108.52 moveto 490.44 86.78 lineto stroke
 490.44 86.78 moveto 626.17 86.78 lineto stroke
 490.44 93.37 moveto 626.17 93.37 lineto stroke
 490.44 90.73 moveto 626.17 90.73 lineto stroke
 547.11 187.59 moveto 686.79 187.59 lineto stroke
 686.79 187.59 moveto 686.79 142.13 lineto stroke
 547.11 187.59 moveto 547.11 142.13 lineto stroke
 547.11 142.13 moveto 686.79 142.13 lineto stroke
 547.11 172.44 moveto 686.79 172.44 lineto stroke
 547.11 146.08 moveto 686.79 146.08 lineto stroke
 639.35 109.18 moveto 742.14 109.18 lineto stroke
 742.14 109.18 moveto 742.14 87.44 lineto stroke
 639.35 109.18 moveto 639.35 87.44 lineto stroke
 639.35 87.44 moveto 742.14 87.44 lineto stroke
 639.35 94.03 moveto 742.14 94.03 lineto stroke
 639.35 91.39 moveto 742.14 91.39 lineto stroke
 479.24 321.34 moveto 532.61 321.34 lineto stroke
 532.61 321.34 moveto 532.61 299.60 lineto stroke
 479.24 321.34 moveto 479.24 299.60 lineto stroke
 479.24 299.60 moveto 532.61 299.60 lineto stroke
 479.24 306.19 moveto 532.61 306.19 lineto stroke
 479.24 303.55 moveto 532.61 303.55 lineto stroke
 359.98 65.04 moveto 449.59 65.04 lineto stroke
 449.59 65.04 moveto 449.59 43.29 lineto stroke
 359.98 65.04 moveto 359.98 43.29 lineto stroke
 359.98 43.29 moveto 449.59 43.29 lineto stroke
 359.98 49.88 moveto 449.59 49.88 lineto stroke
 359.98 47.25 moveto 449.59 47.25 lineto stroke
 505.60 369.44 moveto 565.56 369.44 lineto stroke
 565.56 369.44 moveto 565.56 347.70 lineto stroke
 505.60 369.44 moveto 505.60 347.70 lineto stroke
 505.60 347.70 moveto 565.56 347.70 lineto stroke
 505.60 354.29 moveto 565.56 354.29 lineto stroke
 505.60 351.65 moveto 565.56 351.65 lineto stroke
 541.18 291.69 moveto 643.30 291.69 lineto stroke
 643.30 291.69 moveto 643.30 222.51 lineto stroke
 541.18 291.69 moveto 541.18 222.51 lineto stroke
 541.18 222.51 moveto 643.30 222.51 lineto stroke
 541.18 276.54 moveto 643.30 276.54 lineto stroke
 541.18 226.46 moveto 643.30 226.46 lineto stroke
 195.26 499.24 moveto 332.97 499.24 lineto stroke
 332.97 499.24 moveto 332.97 335.18 lineto stroke
 195.26 499.24 moveto 195.26 335.18 lineto stroke
 195.26 335.18 moveto 332.97 335.18 lineto stroke
 195.26 484.09 moveto 332.97 484.09 lineto stroke
 195.26 362.85 moveto 332.97 362.85 lineto stroke
 309.91 267.97 moveto 358.01 267.97 lineto stroke
 358.01 267.97 moveto 358.01 246.23 lineto stroke
 309.91 267.97 moveto 309.91 246.23 lineto stroke
 309.91 246.23 moveto 358.01 246.23 lineto stroke
 309.91 252.82 moveto 358.01 252.82 lineto stroke
 309.91 250.18 moveto 358.01 250.18 lineto stroke
grestore
 435.10 262.70 moveto (RunsOn) show
 524.71 248.87 moveto (0..1) show
 296.73 311.46 moveto (BackupHosts) show
 487.81 349.68 moveto (0..N) show
 94.45 354.95 moveto (ShutdownDependsFrom) show
 177.47 338.47 moveto (0..N) show
 94.45 393.16 moveto (InitializationDependsFrom) show
 177.47 376.03 moveto (0..N) show
 654.51 461.69 moveto (Applications) show
 336.92 438.63 moveto (0..N) show
 628.15 318.71 moveto (LFS) show
 608.38 296.96 moveto (1..N) show
 481.88 332.54 moveto (Contains) show
 520.09 337.82 moveto (0..N) show
 578.08 350.99 moveto (Nodes) show
 569.51 364.83 moveto (0..N) show
 613.00 394.48 moveto (Hosts) show
 520.09 374.71 moveto (0..N) show
 551.06 494.63 moveto (Infrastructure) show
 510.87 508.47 moveto (0..N) show
 648.58 352.31 moveto (Racks) show
 641.99 366.15 moveto (1..N) show
 354.71 523.62 moveto (IsControlledBy) show
 105.65 503.85 moveto (1..1) show
 750.70 506.49 moveto (Segments) show
 740.16 523.62 moveto (0..N) show
 684.16 362.85 moveto (TemplateSegment) show
 188.02 256.77 moveto (TemplateApplication) show
 162.98 242.28 moveto (Instances: u16 = '1') show
 162.98 230.42 moveto (RunsOn: enum = 'AllButFirstHost') show
 673.61 529.55 moveto (Segment) show
 643.96 511.76 moveto (get_timeouts) show
 643.96 499.90 moveto (find_is_server_by_mask) show
 58.87 185.61 moveto (RunControlTemplateApplication) show
 47.01 488.04 moveto (RunControlApplicationBase) show
 31.20 473.55 moveto (ActionTimeout: s32 = '10') show
 31.20 461.69 moveto (ProbeInterval: s32 = '25') show
 31.20 449.83 moveto (FullStatisticsInterval: s32 = '63') show
 31.20 437.97 moveto (IfError: enum) show
 31.20 426.11 moveto (ControlsTTCPartitions: bool = 'false') show
 244.68 155.30 moveto (RunControlApplication) show
 616.95 361.54 moveto (Rack) show
 518.78 55.15 moveto (MonTemplateApplication) show
 669.66 59.11 moveto (MonApplication) show
 186.04 184.95 moveto (InfrastructureTemplateApplication) show
 398.20 502.54 moveto (InfrastructureBase) show
 357.35 488.04 moveto (SegmentProcEnvVarName: string) show
 357.35 476.18 moveto (SegmentProcEnvVarParentName: string) show
 357.35 464.32 moveto (SegmentProcEnvVarValue: enum) show
 351.42 155.30 moveto (InfrastructureApplication) show
 197.90 53.84 moveto (IPCServiceTemplateApplication) show
 294.10 122.36 moveto (IPCServiceApplicationBase) show
 277.62 107.87 moveto (InterfaceName: string = 'ipc/servant') show
 277.62 96.01 moveto (IPCName: string) show
 494.40 97.98 moveto (CustomLifetimeTemplateApplication) show
 560.29 177.05 moveto (CustomLifetimeApplicationBase) show
 549.74 162.55 moveto (Lifetime: enum = 'Boot_Shutdown') show
 549.74 150.69 moveto (AllowSpontaneousExit: bool = 'false') show
 643.30 98.64 moveto (CustomLifetimeApplication) show
 483.20 310.80 moveto (ComputerSet) show
 363.94 54.50 moveto (IPCServiceApplication) show
 509.55 358.90 moveto (ComputerBase) show
 575.44 281.15 moveto (Computer) show
 543.81 266.66 moveto (Memory: u32 = '16384') show
 543.81 254.80 moveto (CPU: u16 = '2048') show
 543.81 242.94 moveto (NumberOfCores: u16 = '8') show
 543.81 231.08 moveto (RLogin: string = 'ssh') show
 234.80 488.70 moveto (BaseApplication) show
 197.90 474.20 moveto (Parameters: string) show
 197.90 462.35 moveto (RestartParameters: string) show
 197.90 450.49 moveto (Logging: bool = 'true') show
 197.90 438.63 moveto (InputDevice: string) show
 197.90 426.77 moveto (InitTimeout: u32 = '0') show
 197.90 414.91 moveto (ExitTimeout: u32 = '5') show
 197.90 403.05 moveto (StartIn: string) show
 197.90 391.19 moveto (RestartableDuringRun: bool = 'false') show
 197.90 379.33 moveto (IfExitsUnexpectedly: enum = 'Error') show
 197.90 367.47 moveto (IfFailsToStart: enum = 'Error') show
 197.90 352.31 moveto (get_output_error_directory) show
 197.90 340.45 moveto (get_application) show
 313.86 257.43 moveto (Application) show

% set header font
/Times-Roman findfont
10 scalefont
setfont

 20.00 573.00 moveto (Applications View) show
 20.00 558.00 moveto (Date: 2016-Oct-18 09:58:36) show

% set footer font
/Helvetica findfont
8 scalefont
setfont

 20.00 24.00 moveto (Database files:) show
 20.00 9.00 moveto (- 'dal/data/schema/core.schema.xml') show
showpage
