%!PS-Adobe-2.0 EPSF-2.0
%%Creator: OKS Library, <Igor.Soloviev@cern.ch>, CERN
%%Title: unknown
%%BoundingBox: 20 40 729 552
%%Pages: 1
%%DocumentFonts: Helvetica-Narrow Times-Roman Helvetica
%%EndComments

% set image font
/Helvetica-Narrow findfont
5.51 scalefont
setfont

% draw in landscape mode
90 rotate  0 -595 translate

gsave
0.46 setlinewidth
0.17 0.17 0.17 setrgbcolor
 170.16 197.50 moveto 162.81 193.83 lineto stroke
 170.16 197.50 moveto 162.81 201.18 lineto stroke
 162.81 201.18 moveto 162.81 193.83 lineto stroke
 162.81 197.50 moveto 154.54 197.50 lineto stroke
 154.54 197.50 moveto 154.54 240.21 lineto stroke
 147.20 256.28 moveto 147.20 315.52 lineto stroke
 147.20 315.52 moveto 446.13 315.52 lineto stroke
 446.13 315.52 moveto 446.13 262.25 lineto stroke
 138.01 256.28 moveto 138.01 298.98 lineto stroke
 138.01 298.98 moveto 509.96 298.98 lineto stroke
 168.32 248.01 moveto 175.67 244.34 lineto stroke
 168.32 248.01 moveto 175.67 251.69 lineto stroke
 175.67 251.69 moveto 175.67 244.34 lineto stroke
 175.67 248.01 moveto 295.52 248.01 lineto stroke
 295.52 248.01 moveto 295.52 203.47 lineto stroke
 453.94 379.80 moveto 453.94 277.40 lineto stroke
 453.94 277.40 moveto 163.27 277.40 lineto stroke
 163.27 277.40 moveto 163.27 256.28 lineto stroke
 146.28 240.21 moveto 142.60 232.86 lineto stroke
 146.28 240.21 moveto 149.95 232.86 lineto stroke
 142.60 232.86 moveto 149.95 232.86 lineto stroke
 146.28 232.86 moveto 146.28 105.21 lineto stroke
 267.05 53.78 moveto 347.86 53.78 lineto stroke
 347.86 53.78 moveto 347.86 67.09 lineto stroke
 347.86 67.09 moveto 267.05 67.09 lineto stroke
 267.05 82.70 moveto 347.40 82.70 lineto stroke
 347.40 82.70 moveto 347.40 96.94 lineto stroke
 347.40 96.94 moveto 267.05 96.94 lineto stroke
 267.05 151.58 moveto 365.31 151.58 lineto stroke
 189.90 343.99 moveto 187.15 339.85 lineto stroke
 189.90 343.99 moveto 192.66 339.85 lineto stroke
 187.15 339.85 moveto 189.90 335.72 lineto stroke
 192.66 339.85 moveto 189.90 335.72 lineto stroke
 189.90 335.72 moveto 189.90 218.17 lineto stroke
 231.69 218.17 moveto 231.69 348.12 lineto stroke
 231.69 348.12 moveto 273.47 348.12 lineto stroke
 273.47 348.12 moveto 273.47 381.18 lineto stroke
 267.05 121.74 moveto 274.39 118.06 lineto stroke
 267.05 121.74 moveto 274.39 125.41 lineto stroke
 274.39 125.41 moveto 274.39 118.06 lineto stroke
 274.39 121.74 moveto 537.97 121.74 lineto stroke
 390.57 497.36 moveto 173.37 497.36 lineto stroke
 132.50 507.46 moveto 125.16 503.78 lineto stroke
 132.50 507.46 moveto 125.16 511.13 lineto stroke
 125.16 511.13 moveto 125.16 503.78 lineto stroke
 125.16 507.46 moveto 35.15 507.46 lineto stroke
 35.15 507.46 moveto 35.15 527.20 lineto stroke
 132.50 479.91 moveto 125.16 476.23 lineto stroke
 132.50 479.91 moveto 125.16 483.58 lineto stroke
 125.16 483.58 moveto 125.16 476.23 lineto stroke
 125.16 479.91 moveto 117.35 479.91 lineto stroke
 163.27 474.40 moveto 159.59 467.05 lineto stroke
 163.27 474.40 moveto 166.94 467.05 lineto stroke
 159.59 467.05 moveto 166.94 467.05 lineto stroke
 163.27 467.05 moveto 163.27 459.24 lineto stroke
 538.89 290.26 moveto 535.21 282.91 lineto stroke
 538.89 290.26 moveto 542.56 282.91 lineto stroke
 535.21 282.91 moveto 542.56 282.91 lineto stroke
 538.89 282.91 moveto 538.89 270.06 lineto stroke
 538.89 270.06 moveto 480.57 270.06 lineto stroke
 480.57 270.06 moveto 480.57 262.25 lineto stroke
 111.38 326.08 moveto 118.73 322.40 lineto stroke
 111.38 326.08 moveto 118.73 329.75 lineto stroke
 118.73 329.75 moveto 118.73 322.40 lineto stroke
 118.73 326.08 moveto 428.22 326.08 lineto stroke
 428.22 326.08 moveto 428.22 262.25 lineto stroke
 477.36 379.80 moveto 477.36 262.25 lineto stroke
 26.89 527.20 moveto 26.89 287.96 lineto stroke
 26.89 287.96 moveto 460.83 287.96 lineto stroke
 460.83 287.96 moveto 460.83 262.25 lineto stroke
 538.89 290.26 moveto 535.21 282.91 lineto stroke
 538.89 290.26 moveto 542.56 282.91 lineto stroke
 535.21 282.91 moveto 542.56 282.91 lineto stroke
 538.89 282.91 moveto 538.89 270.06 lineto stroke
 538.89 270.06 moveto 561.39 270.06 lineto stroke
 561.39 270.06 moveto 561.39 260.87 lineto stroke
 579.76 260.87 moveto 579.76 298.53 lineto stroke
 579.76 298.53 moveto 552.66 298.53 lineto stroke
 40.20 541.44 moveto 44.34 538.68 lineto stroke
 40.20 541.44 moveto 44.34 544.19 lineto stroke
 44.34 538.68 moveto 48.47 541.44 lineto stroke
 44.34 544.19 moveto 48.47 541.44 lineto stroke
 48.47 541.44 moveto 537.97 541.44 lineto stroke
 537.97 541.44 moveto 537.97 306.33 lineto stroke
 207.35 343.99 moveto 207.35 336.18 lineto stroke
 207.35 336.18 moveto 520.52 336.18 lineto stroke
 520.52 336.18 moveto 520.52 306.33 lineto stroke
 456.69 154.34 moveto 449.35 150.67 lineto stroke
 456.69 154.34 moveto 449.35 158.01 lineto stroke
 449.35 158.01 moveto 449.35 150.67 lineto stroke
 449.35 154.34 moveto 434.19 154.34 lineto stroke
 661.49 469.35 moveto 661.49 256.74 lineto stroke
 661.49 256.74 moveto 589.40 256.74 lineto stroke
 53.52 335.26 moveto 46.17 331.59 lineto stroke
 53.52 335.26 moveto 46.17 338.93 lineto stroke
 46.17 338.93 moveto 46.17 331.59 lineto stroke
 46.17 335.26 moveto 31.02 335.26 lineto stroke
 31.02 335.26 moveto 31.02 527.20 lineto stroke
 152.25 354.55 moveto 111.38 354.55 lineto stroke
 364.39 220.00 moveto 360.72 212.66 lineto stroke
 364.39 220.00 moveto 368.07 212.66 lineto stroke
 360.72 212.66 moveto 368.07 212.66 lineto stroke
 364.39 212.66 moveto 364.39 209.44 lineto stroke
 364.39 209.44 moveto 340.52 209.44 lineto stroke
 340.52 209.44 moveto 340.52 203.47 lineto stroke
 364.39 220.00 moveto 360.72 212.66 lineto stroke
 364.39 220.00 moveto 368.07 212.66 lineto stroke
 360.72 212.66 moveto 368.07 212.66 lineto stroke
 364.39 212.66 moveto 364.39 209.44 lineto stroke
 364.39 209.44 moveto 400.67 209.44 lineto stroke
 400.67 209.44 moveto 400.67 203.47 lineto stroke
 166.94 343.99 moveto 166.94 304.50 lineto stroke
 166.94 304.50 moveto 410.31 304.50 lineto stroke
 410.31 304.50 moveto 410.31 260.87 lineto stroke
 572.41 135.97 moveto 568.74 143.32 lineto stroke
 572.41 135.97 moveto 576.08 143.32 lineto stroke
 568.74 143.32 moveto 576.08 143.32 lineto stroke
 572.41 143.32 moveto 572.41 195.67 lineto stroke
 572.41 195.67 moveto 447.05 195.67 lineto stroke
 621.08 474.86 moveto 512.71 474.86 lineto stroke
 512.71 488.63 moveto 621.08 488.63 lineto stroke
 699.15 469.35 moveto 699.15 156.63 lineto stroke
 699.15 156.63 moveto 525.57 156.63 lineto stroke
 219.29 362.81 moveto 226.64 359.14 lineto stroke
 219.29 362.81 moveto 226.64 366.49 lineto stroke
 226.64 366.49 moveto 226.64 359.14 lineto stroke
 226.64 362.81 moveto 634.40 362.81 lineto stroke
 634.40 362.81 moveto 634.40 469.35 lineto stroke
 390.57 474.40 moveto 386.44 471.64 lineto stroke
 390.57 474.40 moveto 386.44 477.15 lineto stroke
 386.44 471.64 moveto 382.30 474.40 lineto stroke
 386.44 477.15 moveto 382.30 474.40 lineto stroke
 382.30 474.40 moveto 213.78 474.40 lineto stroke
 213.78 474.40 moveto 213.78 459.24 lineto stroke
 390.57 394.04 moveto 304.70 394.04 lineto stroke
 166.94 529.50 moveto 40.20 529.50 lineto stroke
 91.63 464.75 moveto 87.96 457.41 lineto stroke
 91.63 464.75 moveto 95.31 457.41 lineto stroke
 87.96 457.41 moveto 95.31 457.41 lineto stroke
 91.63 457.41 moveto 91.63 441.33 lineto stroke
 91.63 441.33 moveto 102.65 441.33 lineto stroke
 102.65 441.33 moveto 102.65 436.28 lineto stroke
 91.63 464.75 moveto 87.96 457.41 lineto stroke
 91.63 464.75 moveto 95.31 457.41 lineto stroke
 87.96 457.41 moveto 95.31 457.41 lineto stroke
 91.63 457.41 moveto 91.63 441.33 lineto stroke
 91.63 441.33 moveto 81.07 441.33 lineto stroke
 81.07 441.33 moveto 81.07 436.28 lineto stroke
 60.87 436.28 moveto 58.11 440.42 lineto stroke
 60.87 436.28 moveto 63.62 440.42 lineto stroke
 58.11 440.42 moveto 60.87 444.55 lineto stroke
 63.62 440.42 moveto 60.87 444.55 lineto stroke
 60.87 444.55 moveto 60.87 473.48 lineto stroke
 60.87 473.48 moveto 74.64 473.48 lineto stroke
 152.25 445.01 moveto 148.11 442.25 lineto stroke
 152.25 445.01 moveto 148.11 447.76 lineto stroke
 148.11 442.25 moveto 143.98 445.01 lineto stroke
 148.11 447.76 moveto 143.98 445.01 lineto stroke
 143.98 445.01 moveto 107.71 445.01 lineto stroke
 107.71 445.01 moveto 107.71 464.75 lineto stroke
 81.07 420.21 moveto 77.40 412.86 lineto stroke
 81.07 420.21 moveto 84.75 412.86 lineto stroke
 77.40 412.86 moveto 84.75 412.86 lineto stroke
 81.07 412.86 moveto 81.07 407.81 lineto stroke
 81.07 407.81 moveto 64.54 407.81 lineto stroke
 64.54 407.81 moveto 64.54 401.84 lineto stroke
 81.07 420.21 moveto 77.40 412.86 lineto stroke
 81.07 420.21 moveto 84.75 412.86 lineto stroke
 77.40 412.86 moveto 84.75 412.86 lineto stroke
 81.07 412.86 moveto 81.07 407.81 lineto stroke
 81.07 407.81 moveto 114.13 407.81 lineto stroke
 114.13 407.81 moveto 114.13 401.84 lineto stroke
 77.86 125.87 moveto 74.18 118.52 lineto stroke
 77.86 125.87 moveto 81.53 118.52 lineto stroke
 74.18 118.52 moveto 81.53 118.52 lineto stroke
 77.86 118.52 moveto 77.86 111.17 lineto stroke
 77.86 111.17 moveto 111.38 111.17 lineto stroke
 111.38 111.17 moveto 111.38 105.21 lineto stroke
 77.86 125.87 moveto 74.18 118.52 lineto stroke
 77.86 125.87 moveto 81.53 118.52 lineto stroke
 74.18 118.52 moveto 81.53 118.52 lineto stroke
 77.86 118.52 moveto 77.86 111.17 lineto stroke
 77.86 111.17 moveto 56.28 111.17 lineto stroke
 56.28 111.17 moveto 56.28 83.62 lineto stroke
 152.25 378.88 moveto 41.58 378.88 lineto stroke
 41.58 378.88 moveto 41.58 183.27 lineto stroke
 569.19 103.37 moveto 565.52 96.02 lineto stroke
 569.19 103.37 moveto 572.87 96.02 lineto stroke
 565.52 96.02 moveto 572.87 96.02 lineto stroke
 569.19 96.02 moveto 569.19 42.30 lineto stroke
 569.19 42.30 moveto 65.00 42.30 lineto stroke
 65.00 42.30 moveto 65.00 67.55 lineto stroke
 219.29 444.55 moveto 223.42 441.79 lineto stroke
 219.29 444.55 moveto 223.42 447.30 lineto stroke
 223.42 441.79 moveto 227.56 444.55 lineto stroke
 223.42 447.30 moveto 227.56 444.55 lineto stroke
 227.56 444.55 moveto 261.54 444.55 lineto stroke
 261.54 444.55 moveto 261.54 455.11 lineto stroke
 261.54 455.11 moveto 219.29 455.11 lineto stroke
 219.29 422.51 moveto 281.74 422.51 lineto stroke
 281.74 422.51 moveto 281.74 405.52 lineto stroke
 190.36 459.24 moveto 186.69 466.59 lineto stroke
 190.36 459.24 moveto 194.03 466.59 lineto stroke
 186.69 466.59 moveto 194.03 466.59 lineto stroke
 190.36 466.59 moveto 190.36 521.69 lineto stroke
 83.37 489.09 moveto 83.37 500.11 lineto stroke
 83.37 500.11 moveto 132.50 500.11 lineto stroke
grestore
gsave
0.92 setlinewidth
0.17 0.17 0.17 setrgbcolor
 167.40 537.31 moveto 216.99 537.31 lineto stroke
 216.99 537.31 moveto 216.99 522.15 lineto stroke
 167.40 537.31 moveto 167.40 522.15 lineto stroke
 167.40 522.15 moveto 216.99 522.15 lineto stroke
 167.40 526.74 moveto 216.99 526.74 lineto stroke
 167.40 524.91 moveto 216.99 524.91 lineto stroke
 538.43 135.51 moveto 627.97 135.51 lineto stroke
 627.97 135.51 moveto 627.97 103.83 lineto stroke
 538.43 135.51 moveto 538.43 103.83 lineto stroke
 538.43 103.83 moveto 627.97 103.83 lineto stroke
 538.43 124.95 moveto 627.97 124.95 lineto stroke
 538.43 106.58 moveto 627.97 106.58 lineto stroke
 228.47 405.06 moveto 304.24 405.06 lineto stroke
 304.24 405.06 moveto 304.24 381.64 lineto stroke
 228.47 405.06 moveto 228.47 381.64 lineto stroke
 228.47 381.64 moveto 304.24 381.64 lineto stroke
 228.47 394.50 moveto 304.24 394.50 lineto stroke
 228.47 384.39 moveto 304.24 384.39 lineto stroke
 152.71 458.78 moveto 218.83 458.78 lineto stroke
 218.83 458.78 moveto 218.83 344.44 lineto stroke
 152.71 458.78 moveto 152.71 344.44 lineto stroke
 152.71 344.44 moveto 218.83 344.44 lineto stroke
 152.71 448.22 moveto 218.83 448.22 lineto stroke
 152.71 446.39 moveto 218.83 446.39 lineto stroke
 457.15 181.43 moveto 525.11 181.43 lineto stroke
 525.11 181.43 moveto 525.11 133.22 lineto stroke
 457.15 181.43 moveto 457.15 133.22 lineto stroke
 457.15 133.22 moveto 525.11 133.22 lineto stroke
 457.15 170.87 moveto 525.11 170.87 lineto stroke
 457.15 135.97 moveto 525.11 135.97 lineto stroke
 43.42 83.16 moveto 128.37 83.16 lineto stroke
 128.37 83.16 moveto 128.37 68.01 lineto stroke
 43.42 83.16 moveto 43.42 68.01 lineto stroke
 43.42 68.01 moveto 128.37 68.01 lineto stroke
 43.42 72.60 moveto 128.37 72.60 lineto stroke
 43.42 70.77 moveto 128.37 70.77 lineto stroke
 27.35 182.81 moveto 122.86 182.81 lineto stroke
 122.86 182.81 moveto 122.86 126.33 lineto stroke
 27.35 182.81 moveto 27.35 126.33 lineto stroke
 27.35 126.33 moveto 122.86 126.33 lineto stroke
 27.35 172.25 moveto 122.86 172.25 lineto stroke
 27.35 129.08 moveto 122.86 129.08 lineto stroke
 98.06 104.75 moveto 160.05 104.75 lineto stroke
 160.05 104.75 moveto 160.05 89.59 lineto stroke
 98.06 104.75 moveto 98.06 89.59 lineto stroke
 98.06 89.59 moveto 160.05 89.59 lineto stroke
 98.06 94.18 moveto 160.05 94.18 lineto stroke
 98.06 92.35 moveto 160.05 92.35 lineto stroke
 94.85 401.38 moveto 140.31 401.38 lineto stroke
 140.31 401.38 moveto 140.31 386.23 lineto stroke
 94.85 401.38 moveto 94.85 386.23 lineto stroke
 94.85 386.23 moveto 140.31 386.23 lineto stroke
 94.85 390.82 moveto 140.31 390.82 lineto stroke
 94.85 388.99 moveto 140.31 388.99 lineto stroke
 40.66 401.38 moveto 90.26 401.38 lineto stroke
 90.26 401.38 moveto 90.26 386.23 lineto stroke
 40.66 401.38 moveto 40.66 386.23 lineto stroke
 40.66 386.23 moveto 90.26 386.23 lineto stroke
 40.66 390.82 moveto 90.26 390.82 lineto stroke
 40.66 388.99 moveto 90.26 388.99 lineto stroke
 53.06 435.82 moveto 90.26 435.82 lineto stroke
 90.26 435.82 moveto 90.26 420.67 lineto stroke
 53.06 435.82 moveto 53.06 420.67 lineto stroke
 53.06 420.67 moveto 90.26 420.67 lineto stroke
 53.06 425.26 moveto 90.26 425.26 lineto stroke
 53.06 423.43 moveto 90.26 423.43 lineto stroke
 75.10 488.63 moveto 116.89 488.63 lineto stroke
 116.89 488.63 moveto 116.89 465.21 lineto stroke
 75.10 488.63 moveto 75.10 465.21 lineto stroke
 75.10 465.21 moveto 116.89 465.21 lineto stroke
 75.10 478.07 moveto 116.89 478.07 lineto stroke
 75.10 476.23 moveto 116.89 476.23 lineto stroke
 95.31 435.82 moveto 124.24 435.82 lineto stroke
 124.24 435.82 moveto 124.24 420.67 lineto stroke
 95.31 435.82 moveto 95.31 420.67 lineto stroke
 95.31 420.67 moveto 124.24 420.67 lineto stroke
 95.31 425.26 moveto 124.24 425.26 lineto stroke
 95.31 423.43 moveto 124.24 423.43 lineto stroke
 22.30 542.82 moveto 39.75 542.82 lineto stroke
 39.75 542.82 moveto 39.75 527.66 lineto stroke
 22.30 542.82 moveto 22.30 527.66 lineto stroke
 22.30 527.66 moveto 39.75 527.66 lineto stroke
 22.30 532.25 moveto 39.75 532.25 lineto stroke
 22.30 530.42 moveto 39.75 530.42 lineto stroke
 391.03 527.66 moveto 512.25 527.66 lineto stroke
 512.25 527.66 moveto 512.25 380.26 lineto stroke
 391.03 527.66 moveto 391.03 380.26 lineto stroke
 391.03 380.26 moveto 512.25 380.26 lineto stroke
 391.03 517.10 moveto 512.25 517.10 lineto stroke
 391.03 440.88 moveto 512.25 440.88 lineto stroke
 621.54 493.22 moveto 726.70 493.22 lineto stroke
 726.70 493.22 moveto 726.70 469.80 lineto stroke
 621.54 493.22 moveto 621.54 469.80 lineto stroke
 621.54 469.80 moveto 726.70 469.80 lineto stroke
 621.54 482.66 moveto 726.70 482.66 lineto stroke
 621.54 472.56 moveto 726.70 472.56 lineto stroke
 357.05 203.01 moveto 446.59 203.01 lineto stroke
 446.59 203.01 moveto 446.59 187.86 lineto stroke
 357.05 203.01 moveto 357.05 187.86 lineto stroke
 357.05 187.86 moveto 446.59 187.86 lineto stroke
 357.05 192.45 moveto 446.59 192.45 lineto stroke
 357.05 190.62 moveto 446.59 190.62 lineto stroke
 311.13 260.41 moveto 417.20 260.41 lineto stroke
 417.20 260.41 moveto 417.20 220.46 lineto stroke
 311.13 260.41 moveto 311.13 220.46 lineto stroke
 311.13 220.46 moveto 417.20 220.46 lineto stroke
 311.13 249.85 moveto 417.20 249.85 lineto stroke
 311.13 223.22 moveto 417.20 223.22 lineto stroke
 285.87 203.01 moveto 352.46 203.01 lineto stroke
 352.46 203.01 moveto 352.46 187.86 lineto stroke
 285.87 203.01 moveto 285.87 187.86 lineto stroke
 285.87 187.86 moveto 352.46 187.86 lineto stroke
 285.87 192.45 moveto 352.46 192.45 lineto stroke
 285.87 190.62 moveto 352.46 190.62 lineto stroke
 53.98 366.49 moveto 110.92 366.49 lineto stroke
 110.92 366.49 moveto 110.92 301.74 lineto stroke
 53.98 366.49 moveto 53.98 301.74 lineto stroke
 53.98 301.74 moveto 110.92 301.74 lineto stroke
 53.98 355.92 moveto 110.92 355.92 lineto stroke
 53.98 304.50 moveto 110.92 304.50 lineto stroke
 551.75 260.41 moveto 588.94 260.41 lineto stroke
 588.94 260.41 moveto 588.94 245.26 lineto stroke
 551.75 260.41 moveto 551.75 245.26 lineto stroke
 551.75 245.26 moveto 588.94 245.26 lineto stroke
 551.75 249.85 moveto 588.94 249.85 lineto stroke
 551.75 248.01 moveto 588.94 248.01 lineto stroke
 365.77 169.03 moveto 433.73 169.03 lineto stroke
 433.73 169.03 moveto 433.73 137.35 lineto stroke
 365.77 169.03 moveto 365.77 137.35 lineto stroke
 365.77 137.35 moveto 433.73 137.35 lineto stroke
 365.77 158.47 moveto 433.73 158.47 lineto stroke
 365.77 148.37 moveto 433.73 148.37 lineto stroke
 510.42 305.87 moveto 552.20 305.87 lineto stroke
 552.20 305.87 moveto 552.20 290.72 lineto stroke
 510.42 305.87 moveto 510.42 290.72 lineto stroke
 510.42 290.72 moveto 552.20 290.72 lineto stroke
 510.42 295.31 moveto 552.20 295.31 lineto stroke
 510.42 293.47 moveto 552.20 293.47 lineto stroke
 426.39 261.79 moveto 497.56 261.79 lineto stroke
 497.56 261.79 moveto 497.56 213.57 lineto stroke
 426.39 261.79 moveto 426.39 213.57 lineto stroke
 426.39 213.57 moveto 497.56 213.57 lineto stroke
 426.39 251.23 moveto 497.56 251.23 lineto stroke
 426.39 216.33 moveto 497.56 216.33 lineto stroke
 132.96 514.81 moveto 172.91 514.81 lineto stroke
 172.91 514.81 moveto 172.91 474.86 lineto stroke
 132.96 514.81 moveto 132.96 474.86 lineto stroke
 132.96 474.86 moveto 172.91 474.86 lineto stroke
 132.96 504.24 moveto 172.91 504.24 lineto stroke
 132.96 502.41 moveto 172.91 502.41 lineto stroke
 170.62 217.71 moveto 266.59 217.71 lineto stroke
 266.59 217.71 moveto 266.59 45.51 lineto stroke
 170.62 217.71 moveto 170.62 45.51 lineto stroke
 170.62 45.51 moveto 266.59 45.51 lineto stroke
 170.62 207.15 moveto 266.59 207.15 lineto stroke
 170.62 122.65 moveto 266.59 122.65 lineto stroke
 134.34 255.82 moveto 167.86 255.82 lineto stroke
 167.86 255.82 moveto 167.86 240.67 lineto stroke
 134.34 255.82 moveto 134.34 240.67 lineto stroke
 134.34 240.67 moveto 167.86 240.67 lineto stroke
 134.34 245.26 moveto 167.86 245.26 lineto stroke
 134.34 243.42 moveto 167.86 243.42 lineto stroke
grestore
 286.79 318.73 moveto (RunsOn) show
 435.11 265.46 moveto (0..1) show
 102.65 276.03 moveto (BackupHosts) show
 498.02 292.56 moveto (0..N) show
 267.96 270.97 moveto (OnlineInfrastructureApplications) show
 151.33 259.49 moveto (0..N) show
 284.95 58.83 moveto (ShutdownDependsFrom) show
 269.34 70.31 moveto (0..N) show
 279.90 88.22 moveto (InitializationDependsFrom) show
 269.34 100.15 moveto (0..N) show
 306.08 154.80 moveto (Program) show
 354.29 145.16 moveto (1..1) show
 191.74 279.70 moveto (Applications) show
 177.96 221.38 moveto (0..N) show
 239.03 351.33 moveto (ExplicitTag) show
 275.77 374.75 moveto (0..1) show
 271.18 490.93 moveto (Disabled) show
 175.67 500.57 moveto (0..N) show
 479.19 319.65 moveto (DefaultHost) show
 466.34 265.46 moveto (0..1) show
 239.03 291.18 moveto (LFS) show
 448.89 265.46 moveto (1..N) show
 555.42 278.32 moveto (Contains) show
 554.96 301.74 moveto (0..N) show
 281.28 544.65 moveto (Nodes) show
 526.03 309.55 moveto (0..N) show
 357.05 339.39 moveto (Hosts) show
 508.58 309.55 moveto (0..N) show
 663.33 361.43 moveto (TestHosts) show
 591.70 259.95 moveto (0..1) show
 115.97 348.12 moveto (UsesObjects) show
 113.68 357.76 moveto (0..N) show
 272.56 307.71 moveto (Infrastructure) show
 398.37 264.09 moveto (0..N) show
 550.37 468.43 moveto (InitialPartition) show
 515.01 478.07 moveto (1..1) show
 542.10 491.85 moveto (OnlineInfrastructure) show
 610.06 482.20 moveto (1..1) show
 700.98 311.38 moveto (PmgAgent) show
 527.87 159.85 moveto (1..1) show
 290.01 467.97 moveto (Segments) show
 201.84 462.46 moveto (0..N) show
 332.71 387.61 moveto (DefaultTags) show
 307.00 397.25 moveto (0..N) show
 96.23 523.07 moveto (Racks) show
 42.50 532.71 moveto (1..N) show
 36.53 453.27 moveto (Contains) show
 62.70 467.05 moveto (0..N) show
 116.89 438.58 moveto (Resources) show
 110.00 458.32 moveto (0..N) show
 78.78 372.46 moveto (IsControlledBy) show
 30.56 186.48 moveto (1..1) show
 234.90 448.22 moveto (Segments) show
 221.59 458.32 moveto (0..N) show
 235.82 425.72 moveto (DefaultTags) show
 269.80 408.73 moveto (0..N) show
 170.16 529.96 moveto (TemplateSegment) show
 557.71 128.17 moveto (TemplateApplication) show
 540.27 118.06 moveto (Instances: u16 = '1') show
 540.27 109.80 moveto (RunsOn: enum = 'AllButFirstHost') show
 261.99 397.71 moveto (Tag) show
 230.31 387.61 moveto (SW_Tag: enum = 'gcc8-opt') show
 175.21 451.44 moveto (Segment) show
 154.54 439.04 moveto (get_timeouts) show
 154.54 430.77 moveto (find_is_server_by_mask) show
 154.54 422.51 moveto (get_all_applications) show
 154.54 414.24 moveto (get_controller) show
 154.54 405.98 moveto (get_infrastructure) show
 154.54 397.71 moveto (get_applications) show
 154.54 389.45 moveto (get_nested_segments) show
 154.54 381.18 moveto (get_hosts) show
 154.54 372.91 moveto (get_base_segment) show
 154.54 364.65 moveto (is_disabled) show
 154.54 356.38 moveto (is_templated) show
 154.54 348.12 moveto (get_seg_config) show
 476.90 174.08 moveto (SW_Object) show
 458.99 163.98 moveto (BinaryName: string) show
 458.99 155.72 moveto (Description: string) show
 458.99 147.45 moveto (Authors: list of string) show
 458.99 139.19 moveto (HelpURL: string = 'http://') show
 46.17 75.82 moveto (RunControlTemplateApplication) show
 40.20 175.46 moveto (RunControlApplicationBase) show
 29.18 165.36 moveto (ActionTimeout: s32 = '10') show
 29.18 157.09 moveto (ProbeInterval: s32 = '25') show
 29.18 148.83 moveto (FullStatisticsInterval: s32 = '63') show
 29.18 140.56 moveto (IfError: enum) show
 29.18 132.30 moveto (ControlsTTCPartitions: bool = 'false') show
 100.82 97.40 moveto (RunControlApplication) show
 97.60 394.04 moveto (ResourceSetOR) show
 43.42 394.04 moveto (ResourceSetAND) show
 55.82 428.48 moveto (ResourceSet) show
 77.86 481.28 moveto (ResourceBase) show
 76.94 468.89 moveto (get_resources) show
 98.06 428.48 moveto (Resource) show
 25.05 535.47 moveto (Rack) show
 441.54 520.32 moveto (Partition) show
 392.86 510.21 moveto (RepositoryRoot: string) show
 392.86 501.95 moveto (IPCRef: string = '$\(TDAQ_IPC_INIT_REF\)') show
 392.86 493.68 moveto (DBPath: string = '$\(TDAQ_DB_PATH\)') show
 392.86 485.42 moveto (DBName: string = '$\(TDAQ_DB_DATA\)') show
 392.86 477.15 moveto (DBVersion: string = '$\(TDAQ_DB_VERSION\)') show
 392.86 468.89 moveto (DBTechnology: enum = 'rdbconfig') show
 392.86 460.62 moveto (LogRoot: string = '/tmp') show
 392.86 452.36 moveto (WorkingDirectory: string = '/tmp') show
 392.86 444.09 moveto (RunTypes: list of string) show
 392.86 433.53 moveto (get_all_applications) show
 392.86 425.26 moveto (set_disabled) show
 392.86 417.00 moveto (set_enabled) show
 392.86 408.73 moveto (get_segment) show
 392.86 400.47 moveto (get_log_directory) show
 392.86 392.20 moveto (set_config_version) show
 392.86 383.94 moveto (get_config_version) show
 655.06 485.88 moveto (OnlineSegment) show
 623.38 475.77 moveto (T0_ProjectTag: list of string = 'obsolete') show
 359.80 195.67 moveto (InfrastructureTemplateApplication) show
 341.43 253.07 moveto (InfrastructureBase) show
 312.97 242.96 moveto (SegmentProcEnvVarName: string) show
 312.97 234.70 moveto (SegmentProcEnvVarParentName: string) show
 312.97 226.43 moveto (SegmentProcEnvVarValue: enum) show
 288.63 195.67 moveto (InfrastructureApplication) show
 68.22 359.14 moveto (HW_Object) show
 55.82 349.04 moveto (Type: string) show
 55.82 340.77 moveto (Location: string) show
 55.82 332.51 moveto (Description: string) show
 55.82 324.24 moveto (HelpLink: string) show
 55.82 315.97 moveto (InstallationRef: string) show
 55.82 307.71 moveto (State: bool = 'true') show
 554.50 253.07 moveto (ComputerSet) show
 377.25 161.69 moveto (ComputerProgram) show
 367.61 151.58 moveto (DefaultParameters: string) show
 367.61 141.02 moveto (get_info) show
 513.17 298.53 moveto (ComputerBase) show
 450.26 254.44 moveto (Computer) show
 428.22 244.34 moveto (Memory: u32 = '16384') show
 428.22 236.08 moveto (CPU: u16 = '2048') show
 428.22 227.81 moveto (NumberOfCores: u16 = '8') show
 428.22 219.54 moveto (RLogin: string = 'ssh') show
 138.93 507.46 moveto (Component) show
 134.80 495.06 moveto (get_parents) show
 134.80 486.79 moveto (disabled) show
 134.80 478.53 moveto (why_disabled) show
 198.17 210.36 moveto (BaseApplication) show
 172.45 200.26 moveto (Parameters: string) show
 172.45 191.99 moveto (RestartParameters: string) show
 172.45 183.73 moveto (Logging: bool = 'true') show
 172.45 175.46 moveto (InputDevice: string) show
 172.45 167.20 moveto (InitTimeout: u32 = '0') show
 172.45 158.93 moveto (ExitTimeout: u32 = '5') show
 172.45 150.67 moveto (StartIn: string) show
 172.45 142.40 moveto (RestartableDuringRun: bool = 'false') show
 172.45 134.13 moveto (IfExitsUnexpectedly: enum = 'Error') show
 172.45 125.87 moveto (IfFailsToStart: enum = 'Error') show
 172.45 115.31 moveto (get_host) show
 172.45 107.04 moveto (get_segment) show
 172.45 98.78 moveto (get_backup_hosts) show
 172.45 90.51 moveto (get_base_app) show
 172.45 82.25 moveto (get_initialization_depends_from) show
 172.45 73.98 moveto (get_shutdown_depends_from) show
 172.45 65.71 moveto (get_info) show
 172.45 57.45 moveto (is_templated) show
 172.45 49.18 moveto (get_app_config) show
 137.09 248.47 moveto (Application) show
 50.77 493.22 moveto (DependsOn) show
 121.48 493.68 moveto (0..1) show

% set header font
/Times-Roman findfont
9 scalefont
setfont

 20.00 574.00 moveto (Control View) show
 20.00 561.00 moveto (Date: 2022-Nov-03 17:17:39) show

% set footer font
/Helvetica findfont
8 scalefont
setfont

 20.00 24.00 moveto (Database files:) show
 20.00 11.00 moveto (- '/home/isolov/workspace/dal/data/schema/core.schema.xml') show
showpage
