%!PS-Adobe-2.0 EPSF-2.0
%%Creator: OKS Library, <Igor.Soloviev@cern.ch>, CERN EP/ATD
%%Title: unknown
%%BoundingBox: 20 141 822 545
%%Pages: 1
%%DocumentFonts: Helvetica-Narrow Times-Roman Helvetica
%%EndComments

% set image font
/Helvetica-Narrow findfont
8.91 scalefont
setfont

% draw in landscape mode
90 rotate  0 -595 translate

gsave
0.74 setlinewidth
0.00 0.00 0.00 setrgbcolor
 217.53 415.05 moveto 211.59 403.16 lineto stroke
 217.53 415.05 moveto 223.47 403.16 lineto stroke
 211.59 403.16 moveto 223.47 403.16 lineto stroke
 217.53 403.16 moveto 217.53 369.75 lineto stroke
 801.21 345.99 moveto 795.27 334.10 lineto stroke
 801.21 345.99 moveto 807.15 334.10 lineto stroke
 795.27 334.10 moveto 807.15 334.10 lineto stroke
 801.21 334.10 moveto 801.21 311.08 lineto stroke
 394.27 355.64 moveto 387.58 351.18 lineto stroke
 394.27 355.64 moveto 387.58 360.09 lineto stroke
 387.58 351.18 moveto 380.90 355.64 lineto stroke
 387.58 360.09 moveto 380.90 355.64 lineto stroke
 380.90 355.64 moveto 345.26 355.64 lineto stroke
 276.19 357.12 moveto 264.31 351.18 lineto stroke
 276.19 357.12 moveto 264.31 363.06 lineto stroke
 264.31 363.06 moveto 264.31 351.18 lineto stroke
 264.31 357.12 moveto 252.43 357.12 lineto stroke
 541.30 417.27 moveto 535.36 405.39 lineto stroke
 541.30 417.27 moveto 547.24 405.39 lineto stroke
 535.36 405.39 moveto 547.24 405.39 lineto stroke
 541.30 405.39 moveto 541.30 383.11 lineto stroke
 541.30 383.11 moveto 799.72 383.11 lineto stroke
 799.72 383.11 moveto 799.72 371.98 lineto stroke
 784.13 349.70 moveto 683.14 349.70 lineto stroke
 784.13 367.52 moveto 683.14 367.52 lineto stroke
 92.77 195.98 moveto 92.77 219.00 lineto stroke
 73.47 333.36 moveto 67.53 321.48 lineto stroke
 73.47 333.36 moveto 79.41 321.48 lineto stroke
 67.53 321.48 moveto 79.41 321.48 lineto stroke
 73.47 321.48 moveto 73.47 292.52 lineto stroke
 73.47 292.52 moveto 53.42 292.52 lineto stroke
 53.42 292.52 moveto 53.42 285.09 lineto stroke
 73.47 333.36 moveto 67.53 321.48 lineto stroke
 73.47 333.36 moveto 79.41 321.48 lineto stroke
 67.53 321.48 moveto 79.41 321.48 lineto stroke
 73.47 321.48 moveto 73.47 292.52 lineto stroke
 73.47 292.52 moveto 157.38 292.52 lineto stroke
 157.38 292.52 moveto 157.38 244.99 lineto stroke
 541.30 417.27 moveto 535.36 405.39 lineto stroke
 541.30 417.27 moveto 547.24 405.39 lineto stroke
 535.36 405.39 moveto 547.24 405.39 lineto stroke
 541.30 405.39 moveto 541.30 383.11 lineto stroke
 541.30 383.11 moveto 516.05 383.11 lineto stroke
 516.05 383.11 moveto 516.05 369.75 lineto stroke
 550.95 303.66 moveto 546.50 296.97 lineto stroke
 550.95 303.66 moveto 555.41 296.97 lineto stroke
 546.50 296.97 moveto 550.95 290.29 lineto stroke
 555.41 296.97 moveto 550.95 290.29 lineto stroke
 550.95 290.29 moveto 550.95 268.76 lineto stroke
 423.97 357.87 moveto 430.65 353.41 lineto stroke
 423.97 357.87 moveto 430.65 362.32 lineto stroke
 430.65 353.41 moveto 437.34 357.87 lineto stroke
 430.65 362.32 moveto 437.34 357.87 lineto stroke
 437.34 357.87 moveto 470.75 357.87 lineto stroke
 501.94 303.66 moveto 501.94 291.03 lineto stroke
 501.94 291.03 moveto 201.94 291.03 lineto stroke
 201.94 291.03 moveto 201.94 330.39 lineto stroke
 541.30 417.27 moveto 535.36 405.39 lineto stroke
 541.30 417.27 moveto 547.24 405.39 lineto stroke
 535.36 405.39 moveto 547.24 405.39 lineto stroke
 541.30 405.39 moveto 541.30 383.11 lineto stroke
 541.30 383.11 moveto 63.07 383.11 lineto stroke
 63.07 383.11 moveto 63.07 372.72 lineto stroke
 390.55 515.30 moveto 397.24 510.84 lineto stroke
 390.55 515.30 moveto 397.24 519.75 lineto stroke
 397.24 510.84 moveto 403.92 515.30 lineto stroke
 397.24 519.75 moveto 403.92 515.30 lineto stroke
 403.92 515.30 moveto 495.26 515.30 lineto stroke
 541.30 417.27 moveto 535.36 405.39 lineto stroke
 541.30 417.27 moveto 547.24 405.39 lineto stroke
 535.36 405.39 moveto 547.24 405.39 lineto stroke
 541.30 405.39 moveto 541.30 383.11 lineto stroke
 541.30 383.11 moveto 408.38 383.11 lineto stroke
 408.38 383.11 moveto 408.38 366.78 lineto stroke
 541.30 417.27 moveto 535.36 405.39 lineto stroke
 541.30 417.27 moveto 547.24 405.39 lineto stroke
 535.36 405.39 moveto 547.24 405.39 lineto stroke
 541.30 405.39 moveto 541.30 383.11 lineto stroke
 541.30 383.11 moveto 205.65 383.11 lineto stroke
 205.65 383.11 moveto 205.65 369.75 lineto stroke
 541.30 417.27 moveto 535.36 405.39 lineto stroke
 541.30 417.27 moveto 547.24 405.39 lineto stroke
 535.36 405.39 moveto 547.24 405.39 lineto stroke
 541.30 405.39 moveto 541.30 383.11 lineto stroke
 541.30 383.11 moveto 628.93 383.11 lineto stroke
 628.93 383.11 moveto 628.93 369.75 lineto stroke
 157.38 352.67 moveto 150.70 348.21 lineto stroke
 157.38 352.67 moveto 150.70 357.12 lineto stroke
 150.70 348.21 moveto 144.01 352.67 lineto stroke
 150.70 357.12 moveto 144.01 352.67 lineto stroke
 144.01 352.67 moveto 93.52 352.67 lineto stroke
 500.46 256.87 moveto 493.77 252.42 lineto stroke
 500.46 256.87 moveto 493.77 261.33 lineto stroke
 493.77 252.42 moveto 487.09 256.87 lineto stroke
 493.77 261.33 moveto 487.09 256.87 lineto stroke
 487.09 256.87 moveto 172.23 256.87 lineto stroke
 172.23 256.87 moveto 172.23 330.39 lineto stroke
 596.25 343.76 moveto 590.31 331.88 lineto stroke
 596.25 343.76 moveto 602.19 331.88 lineto stroke
 590.31 331.88 moveto 602.19 331.88 lineto stroke
 596.25 331.88 moveto 596.25 268.76 lineto stroke
 350.45 472.97 moveto 346.00 466.29 lineto stroke
 350.45 472.97 moveto 354.91 466.29 lineto stroke
 346.00 466.29 moveto 350.45 459.60 lineto stroke
 354.91 466.29 moveto 350.45 459.60 lineto stroke
 350.45 459.60 moveto 350.45 443.26 lineto stroke
 350.45 443.26 moveto 409.12 443.26 lineto stroke
 409.12 443.26 moveto 409.12 485.59 lineto stroke
 409.12 485.59 moveto 390.55 485.59 lineto stroke
 334.86 472.97 moveto 328.92 461.09 lineto stroke
 334.86 472.97 moveto 340.80 461.09 lineto stroke
 328.92 461.09 moveto 340.80 461.09 lineto stroke
 334.86 461.09 moveto 334.86 435.10 lineto stroke
 409.86 340.79 moveto 409.86 311.83 lineto stroke
 409.86 311.83 moveto 231.64 311.83 lineto stroke
 231.64 311.83 moveto 231.64 330.39 lineto stroke
grestore
gsave
1.49 setlinewidth
0.00 0.00 0.00 setrgbcolor
 574.72 369.01 moveto 682.39 369.01 lineto stroke
 682.39 369.01 moveto 682.39 344.50 lineto stroke
 574.72 369.01 moveto 574.72 344.50 lineto stroke
 574.72 344.50 moveto 682.39 344.50 lineto stroke
 574.72 351.93 moveto 682.39 351.93 lineto stroke
 574.72 348.96 moveto 682.39 348.96 lineto stroke
 158.12 369.01 moveto 251.69 369.01 lineto stroke
 251.69 369.01 moveto 251.69 331.13 lineto stroke
 158.12 369.01 moveto 158.12 331.13 lineto stroke
 158.12 331.13 moveto 251.69 331.13 lineto stroke
 158.12 351.93 moveto 251.69 351.93 lineto stroke
 158.12 335.59 moveto 251.69 335.59 lineto stroke
 395.01 366.04 moveto 423.23 366.04 lineto stroke
 423.23 366.04 moveto 423.23 341.53 lineto stroke
 395.01 366.04 moveto 395.01 341.53 lineto stroke
 395.01 341.53 moveto 423.23 341.53 lineto stroke
 395.01 348.96 moveto 423.23 348.96 lineto stroke
 395.01 345.99 moveto 423.23 345.99 lineto stroke
 311.10 434.35 moveto 392.78 434.35 lineto stroke
 392.78 434.35 moveto 392.78 396.48 lineto stroke
 311.10 434.35 moveto 311.10 396.48 lineto stroke
 311.10 396.48 moveto 392.78 396.48 lineto stroke
 311.10 417.27 moveto 392.78 417.27 lineto stroke
 311.10 400.94 moveto 392.78 400.94 lineto stroke
 308.13 538.32 moveto 389.81 538.32 lineto stroke
 389.81 538.32 moveto 389.81 473.71 lineto stroke
 308.13 538.32 moveto 308.13 473.71 lineto stroke
 308.13 473.71 moveto 389.81 473.71 lineto stroke
 308.13 521.24 moveto 389.81 521.24 lineto stroke
 308.13 478.17 moveto 389.81 478.17 lineto stroke
 501.20 268.01 moveto 605.16 268.01 lineto stroke
 605.16 268.01 moveto 605.16 176.67 lineto stroke
 501.20 268.01 moveto 501.20 176.67 lineto stroke
 501.20 176.67 moveto 605.16 176.67 lineto stroke
 501.20 250.93 moveto 605.16 250.93 lineto stroke
 501.20 181.13 moveto 605.16 181.13 lineto stroke
 34.85 371.98 moveto 92.77 371.98 lineto stroke
 92.77 371.98 moveto 92.77 334.10 lineto stroke
 34.85 371.98 moveto 34.85 334.10 lineto stroke
 34.85 334.10 moveto 92.77 334.10 lineto stroke
 34.85 354.90 moveto 92.77 354.90 lineto stroke
 34.85 338.56 moveto 92.77 338.56 lineto stroke
 496.00 522.72 moveto 588.08 522.72 lineto stroke
 588.08 522.72 moveto 588.08 418.02 lineto stroke
 496.00 522.72 moveto 496.00 418.02 lineto stroke
 496.00 418.02 moveto 588.08 418.02 lineto stroke
 496.00 505.64 moveto 588.08 505.64 lineto stroke
 496.00 422.47 moveto 588.08 422.47 lineto stroke
 471.50 369.01 moveto 561.35 369.01 lineto stroke
 561.35 369.01 moveto 561.35 304.40 lineto stroke
 471.50 369.01 moveto 471.50 304.40 lineto stroke
 471.50 304.40 moveto 561.35 304.40 lineto stroke
 471.50 351.93 moveto 561.35 351.93 lineto stroke
 471.50 308.86 moveto 561.35 308.86 lineto stroke
 129.90 244.25 moveto 229.41 244.25 lineto stroke
 229.41 244.25 moveto 229.41 206.38 lineto stroke
 129.90 244.25 moveto 129.90 206.38 lineto stroke
 129.90 206.38 moveto 229.41 206.38 lineto stroke
 129.90 227.17 moveto 229.41 227.17 lineto stroke
 129.90 210.83 moveto 229.41 210.83 lineto stroke
 26.68 284.35 moveto 120.99 284.35 lineto stroke
 120.99 284.35 moveto 120.99 219.74 lineto stroke
 26.68 284.35 moveto 26.68 219.74 lineto stroke
 26.68 219.74 moveto 120.99 219.74 lineto stroke
 26.68 267.27 moveto 120.99 267.27 lineto stroke
 26.68 224.20 moveto 120.99 224.20 lineto stroke
 25.94 195.24 moveto 155.15 195.24 lineto stroke
 155.15 195.24 moveto 155.15 144.00 lineto stroke
 25.94 195.24 moveto 25.94 144.00 lineto stroke
 25.94 144.00 moveto 155.15 144.00 lineto stroke
 25.94 178.16 moveto 155.15 178.16 lineto stroke
 25.94 148.46 moveto 155.15 148.46 lineto stroke
 784.87 371.23 moveto 816.80 371.23 lineto stroke
 816.80 371.23 moveto 816.80 346.73 lineto stroke
 784.87 371.23 moveto 784.87 346.73 lineto stroke
 784.87 346.73 moveto 816.80 346.73 lineto stroke
 784.87 354.15 moveto 816.80 354.15 lineto stroke
 784.87 351.18 moveto 816.80 351.18 lineto stroke
 276.94 369.01 moveto 344.51 369.01 lineto stroke
 344.51 369.01 moveto 344.51 344.50 lineto stroke
 276.94 369.01 moveto 276.94 344.50 lineto stroke
 276.94 344.50 moveto 344.51 344.50 lineto stroke
 276.94 351.93 moveto 344.51 351.93 lineto stroke
 276.94 348.96 moveto 344.51 348.96 lineto stroke
 695.76 310.34 moveto 817.54 310.34 lineto stroke
 817.54 310.34 moveto 817.54 232.37 lineto stroke
 695.76 310.34 moveto 695.76 232.37 lineto stroke
 695.76 232.37 moveto 817.54 232.37 lineto stroke
 695.76 293.26 moveto 817.54 293.26 lineto stroke
 695.76 236.82 moveto 817.54 236.82 lineto stroke
 175.20 480.39 moveto 289.56 480.39 lineto stroke
 289.56 480.39 moveto 289.56 415.79 lineto stroke
 175.20 480.39 moveto 175.20 415.79 lineto stroke
 175.20 415.79 moveto 289.56 415.79 lineto stroke
 175.20 463.31 moveto 289.56 463.31 lineto stroke
 175.20 420.24 moveto 289.56 420.24 lineto stroke
grestore
 357.14 345.24 moveto (Nodes) show
 348.97 360.84 moveto (0..N) show
 719.52 339.30 moveto (Source) show
 686.85 354.90 moveto (1..1) show
 711.35 357.12 moveto (Destination) show
 686.85 372.72 moveto (1..1) show
 48.22 204.89 moveto (EndPoints) show
 96.49 208.61 moveto (1..N) show
 553.92 283.61 moveto (Modules) show
 531.65 273.95 moveto (0..N) show
 434.37 363.06 moveto (Crates) show
 451.45 347.47 moveto (0..N) show
 328.18 280.64 moveto (ControlHost) show
 205.65 319.99 moveto (0..1) show
 417.29 520.49 moveto (HW_Objects) show
 475.95 504.90 moveto (0..N) show
 106.14 342.27 moveto (Interfaces) show
 97.23 357.87 moveto (0..N) show
 325.21 246.48 moveto (CPUs) show
 175.94 319.99 moveto (0..N) show
 412.09 448.46 moveto (HW_Systems) show
 394.27 490.79 moveto (0..N) show
 312.58 301.43 moveto (LFS) show
 235.35 319.99 moveto (1..N) show
 579.17 357.12 moveto (HW_ConnectableObject) show
 185.60 357.12 moveto (Computer) show
 161.09 340.79 moveto (RLogin: string = 'ssh') show
 399.46 354.15 moveto (Rack) show
 334.86 422.47 moveto (Detector) show
 314.07 406.14 moveto (LogicalId: u8 = '0') show
 324.46 526.44 moveto (HW_System) show
 311.10 510.10 moveto (Description: string) show
 311.10 496.73 moveto (HelpLink: string) show
 311.10 483.36 moveto (State: bool) show
 538.33 256.13 moveto (Module) show
 504.17 239.79 moveto (PhysAddress: u32 = '0') show
 504.17 226.43 moveto (CommAddress: u32) show
 504.17 213.06 moveto (Position: u16 = '0') show
 504.17 199.69 moveto (Width: u16 = '1') show
 504.17 186.33 moveto (LogicalId: u32 = '0') show
 46.73 360.09 moveto (Interface) show
 37.82 343.76 moveto (Label: string) show
 519.02 510.84 moveto (HW_Object) show
 498.97 494.50 moveto (Type: string) show
 498.97 481.14 moveto (Location: string) show
 498.97 467.77 moveto (Description: string) show
 498.97 454.40 moveto (HelpLink: string) show
 498.97 441.04 moveto (InstallationRef: string) show
 498.97 427.67 moveto (State: bool = 'true') show
 505.66 357.12 moveto (Crate) show
 474.47 340.79 moveto (NumberOfSlots: u16) show
 474.47 327.42 moveto (Position: u16 = '0') show
 474.47 314.05 moveto (LogicalId: u32 = '0') show
 153.67 232.37 moveto (LinkInterface) show
 132.87 216.03 moveto (Type: enum = 'source') show
 40.05 272.47 moveto (NetworkInterface) show
 29.65 256.13 moveto (IPAddress: string) show
 29.65 242.76 moveto (Label: enum) show
 29.65 229.40 moveto (InterfaceName: string) show
 74.21 183.36 moveto (Network) show
 28.91 167.02 moveto (Name: string) show
 28.91 153.65 moveto (IPMask: string = '225.225.0.0') show
 789.33 359.35 moveto (Cable) show
 281.39 357.12 moveto (ComputerBase) show
 723.24 298.46 moveto (ConnectorCable) show
 698.73 282.12 moveto (SrcConnectionType: string) show
 698.73 268.76 moveto (DstConnectionType: string) show
 698.73 255.39 moveto (SrcConnectionNumber: u16) show
 698.73 242.02 moveto (DstConnectionNumber: u16) show
 190.05 468.51 moveto (ComputerParameters) show
 178.17 452.18 moveto (Memory: u16 = '256') show
 178.17 438.81 moveto (CPU: u16 = '1000') show
 178.17 425.44 moveto (NumberOfCores: s16 = '1') show

% set header font
/Times-Roman findfont
11 scalefont
setfont

 20.00 572.00 moveto (Hardware View) show
 20.00 556.00 moveto (Date: 2010-Sep-27 09:55:59) show

% set footer font
/Helvetica findfont
9 scalefont
setfont

 20.00 123.00 moveto (Database files:) show
 20.00 107.00 moveto (- 'dal/data/schema/core.schema.xml') show
showpage
