%!PS-Adobe-2.0 EPSF-2.0
%%Creator: OKS Library, <Igor.Soloviev@cern.ch>, CERN EP/ATD
%%Title: unknown
%%BoundingBox: 20 246 821 545
%%Pages: 1
%%DocumentFonts: Helvetica-Narrow Times-Roman Helvetica
%%EndComments

% set image font
/Helvetica-Narrow findfont
8.77 scalefont
setfont

% draw in landscape mode
90 rotate  0 -595 translate

gsave
0.73 setlinewidth
0.00 0.00 0.00 setrgbcolor
 402.01 335.37 moveto 352.34 335.37 lineto stroke
 363.30 396.72 moveto 357.45 385.04 lineto stroke
 363.30 396.72 moveto 369.14 385.04 lineto stroke
 357.45 385.04 moveto 369.14 385.04 lineto stroke
 363.30 385.04 moveto 363.30 358.74 lineto stroke
 363.30 358.74 moveto 416.62 358.74 lineto stroke
 416.62 358.74 moveto 416.62 347.06 lineto stroke
 363.30 396.72 moveto 357.45 385.04 lineto stroke
 363.30 396.72 moveto 369.14 385.04 lineto stroke
 357.45 385.04 moveto 369.14 385.04 lineto stroke
 363.30 385.04 moveto 363.30 358.74 lineto stroke
 363.30 358.74 moveto 320.93 358.74 lineto stroke
 320.93 358.74 moveto 320.93 350.71 lineto stroke
 415.89 488.76 moveto 422.46 484.38 lineto stroke
 415.89 488.76 moveto 422.46 493.14 lineto stroke
 422.46 484.38 moveto 429.03 488.76 lineto stroke
 422.46 493.14 moveto 429.03 488.76 lineto stroke
 429.03 488.76 moveto 476.51 488.76 lineto stroke
 476.51 488.76 moveto 476.51 503.37 lineto stroke
 476.51 503.37 moveto 415.89 503.37 lineto stroke
 204.80 506.29 moveto 211.37 501.91 lineto stroke
 204.80 506.29 moveto 211.37 510.67 lineto stroke
 211.37 501.91 moveto 217.94 506.29 lineto stroke
 211.37 510.67 moveto 217.94 506.29 lineto stroke
 217.94 506.29 moveto 351.61 506.29 lineto stroke
 369.87 481.45 moveto 369.87 468.31 lineto stroke
 369.87 468.31 moveto 369.87 468.31 lineto stroke
 369.87 468.31 moveto 369.87 435.44 lineto stroke
 396.17 481.45 moveto 396.17 435.44 lineto stroke
 415.89 525.28 moveto 422.46 520.90 lineto stroke
 415.89 525.28 moveto 422.46 529.66 lineto stroke
 422.46 520.90 moveto 429.03 525.28 lineto stroke
 422.46 529.66 moveto 429.03 525.28 lineto stroke
 429.03 525.28 moveto 515.95 525.28 lineto stroke
 204.80 404.03 moveto 340.65 404.03 lineto stroke
 204.80 430.32 moveto 340.65 430.32 lineto stroke
 508.65 377.00 moveto 404.20 377.00 lineto stroke
 404.20 377.00 moveto 404.20 396.72 lineto stroke
 676.65 421.56 moveto 422.46 421.56 lineto stroke
 676.65 363.13 moveto 618.21 363.13 lineto stroke
 676.65 461.73 moveto 646.70 461.73 lineto stroke
 646.70 461.73 moveto 646.70 477.07 lineto stroke
 646.70 477.07 moveto 676.65 477.07 lineto stroke
 676.65 440.55 moveto 646.70 440.55 lineto stroke
 646.70 440.55 moveto 646.70 455.89 lineto stroke
 646.70 455.89 moveto 676.65 455.89 lineto stroke
 676.65 515.05 moveto 664.96 509.21 lineto stroke
 676.65 515.05 moveto 664.96 520.90 lineto stroke
 664.96 520.90 moveto 664.96 509.21 lineto stroke
 664.96 515.05 moveto 570.74 515.05 lineto stroke
grestore
gsave
1.46 setlinewidth
0.00 0.00 0.00 setrgbcolor
 516.68 542.81 moveto 570.01 542.81 lineto stroke
 570.01 542.81 moveto 570.01 505.56 lineto stroke
 516.68 542.81 moveto 516.68 505.56 lineto stroke
 516.68 505.56 moveto 570.01 505.56 lineto stroke
 516.68 526.01 moveto 570.01 526.01 lineto stroke
 516.68 523.09 moveto 570.01 523.09 lineto stroke
 677.38 538.43 moveto 817.62 538.43 lineto stroke
 817.62 538.43 moveto 817.62 303.96 lineto stroke
 677.38 538.43 moveto 677.38 303.96 lineto stroke
 677.38 303.96 moveto 817.62 303.96 lineto stroke
 677.38 521.63 moveto 817.62 521.63 lineto stroke
 677.38 374.08 moveto 817.62 374.08 lineto stroke
 509.38 393.80 moveto 617.48 393.80 lineto stroke
 617.48 393.80 moveto 617.48 330.26 lineto stroke
 509.38 393.80 moveto 509.38 330.26 lineto stroke
 509.38 330.26 moveto 617.48 330.26 lineto stroke
 509.38 377.00 moveto 617.48 377.00 lineto stroke
 509.38 360.93 moveto 617.48 360.93 lineto stroke
 341.38 434.71 moveto 421.73 434.71 lineto stroke
 421.73 434.71 moveto 421.73 397.46 lineto stroke
 341.38 434.71 moveto 341.38 397.46 lineto stroke
 341.38 397.46 moveto 421.73 397.46 lineto stroke
 341.38 417.91 moveto 421.73 417.91 lineto stroke
 341.38 401.84 moveto 421.73 401.84 lineto stroke
 26.57 536.97 moveto 204.07 536.97 lineto stroke
 204.07 536.97 moveto 204.07 249.91 lineto stroke
 26.57 536.97 moveto 26.57 249.91 lineto stroke
 26.57 249.91 moveto 204.07 249.91 lineto stroke
 26.57 520.17 moveto 204.07 520.17 lineto stroke
 26.57 346.33 moveto 204.07 346.33 lineto stroke
 352.34 532.58 moveto 415.16 532.58 lineto stroke
 415.16 532.58 moveto 415.16 482.18 lineto stroke
 352.34 532.58 moveto 352.34 482.18 lineto stroke
 352.34 482.18 moveto 415.16 482.18 lineto stroke
 352.34 515.78 moveto 415.16 515.78 lineto stroke
 352.34 512.86 moveto 415.16 512.86 lineto stroke
 293.18 349.98 moveto 351.61 349.98 lineto stroke
 351.61 349.98 moveto 351.61 286.43 lineto stroke
 293.18 349.98 moveto 293.18 286.43 lineto stroke
 293.18 286.43 moveto 351.61 286.43 lineto stroke
 293.18 333.18 moveto 351.61 333.18 lineto stroke
 293.18 303.96 moveto 351.61 303.96 lineto stroke
 402.74 346.33 moveto 457.52 346.33 lineto stroke
 457.52 346.33 moveto 457.52 322.22 lineto stroke
 402.74 346.33 moveto 402.74 322.22 lineto stroke
 402.74 322.22 moveto 457.52 322.22 lineto stroke
 402.74 329.53 moveto 457.52 329.53 lineto stroke
 402.74 326.60 moveto 457.52 326.60 lineto stroke
grestore
 359.64 325.14 moveto (Contains) show
 355.99 340.48 moveto (1..N) show
 434.15 493.87 moveto (Segments) show
 419.54 508.48 moveto (0..N) show
 258.85 511.40 moveto (Segments) show
 332.62 496.06 moveto (0..N) show
 321.66 458.08 moveto (Parameters) show
 350.88 440.55 moveto (0..N) show
 399.09 455.89 moveto (ProcessEnvironment) show
 377.17 440.55 moveto (0..N) show
 441.45 530.39 moveto (Applications) show
 496.96 515.05 moveto (0..N) show
 250.81 409.14 moveto (Parameters) show
 321.66 393.80 moveto (0..N) show
 231.82 435.44 moveto (ProcessEnvironment) show
 321.66 420.10 moveto (0..N) show
 415.16 366.78 moveto (ProcessEnvironment) show
 407.85 386.50 moveto (0..N) show
 508.65 411.33 moveto (ProcessEnvironment) show
 426.11 426.67 moveto (0..N) show
 631.36 352.90 moveto (Program) show
 621.87 368.24 moveto (1..1) show
 546.63 466.85 moveto (ShutdownDependsFrom) show
 657.66 466.85 moveto (0..N) show
 539.33 445.66 moveto (InitializationDependsFrom) show
 657.66 445.66 moveto (0..N) show
 521.07 531.12 moveto (Application) show
 519.61 511.40 moveto (get_host) show
 714.63 526.74 moveto (BaseApplication) show
 680.30 510.67 moveto (Parameters: string) show
 680.30 497.52 moveto (RestartParameters: string) show
 680.30 484.38 moveto (ControlledByOnline: bool = 'true') show
 680.30 471.23 moveto (IfDies: enum) show
 680.30 458.08 moveto (IfFailed: enum) show
 680.30 444.93 moveto (StartAt: enum = 'Boot') show
 680.30 431.79 moveto (StopAt: enum = 'Shutdown') show
 680.30 418.64 moveto (InitTimeout: u32 = '60') show
 680.30 405.49 moveto (StartIn: string) show
 680.30 392.34 moveto (InputDevice: string) show
 680.30 379.19 moveto (Logging: bool = 'true') show
 680.30 362.40 moveto (get_output_error_directory) show
 680.30 349.25 moveto (get_some_info) show
 680.30 336.10 moveto (get_info) show
 680.30 322.95 moveto (get_application) show
 680.30 309.81 moveto (get_environment) show
 527.64 382.12 moveto (ComputerProgram) show
 512.30 366.05 moveto (DefaultParameters: string) show
 512.30 349.25 moveto (get_parameters) show
 512.30 336.10 moveto (get_environment) show
 361.84 423.02 moveto (Parameter) show
 344.31 406.95 moveto (Description: string) show
 99.62 525.28 moveto (Partition) show
 29.50 509.21 moveto (RepositoryRoot: string) show
 29.50 496.06 moveto (IPCRef: string = '$\(TDAQ_IPC_INIT_REF\)') show
 29.50 482.91 moveto (DBPath: string = '$\(TDAQ_DB_PATH\)') show
 29.50 469.77 moveto (DBName: string = '$\(TDAQ_DB_DATA\)') show
 29.50 456.62 moveto (DBTechnology: enum = 'rdbconfig') show
 29.50 443.47 moveto (LogRoot: string = '/tmp') show
 29.50 430.32 moveto (WorkingDirectory: string = '/tmp') show
 29.50 417.18 moveto (RunTypes: list of string) show
 29.50 404.03 moveto (LVL1InfoSource: string) show
 29.50 390.88 moveto (LVL2InfoSource: string) show
 29.50 377.73 moveto (EBInfoSource: string) show
 29.50 364.59 moveto (EFInfoSource: string) show
 29.50 351.44 moveto (RecordedEventsInfoSource: string) show
 29.50 334.64 moveto (get_applications) show
 29.50 321.49 moveto (get_template_segments) show
 29.50 308.34 moveto (appId2nodeId) show
 29.50 295.20 moveto (nodeId2appId) show
 29.50 282.05 moveto (get_all_applications) show
 29.50 268.90 moveto (get_node_id) show
 29.50 255.75 moveto (get_app_id) show
 366.95 520.90 moveto (Segment) show
 355.26 501.17 moveto (get_timeouts) show
 355.26 488.03 moveto (get_controller) show
 305.59 338.29 moveto (Variable) show
 296.10 322.22 moveto (Name: string) show
 296.10 309.07 moveto (Value: string) show
 296.10 292.28 moveto (get_value) show
 407.12 334.64 moveto (VariableSet) show

% set header font
/Times-Roman findfont
11 scalefont
setfont

 20.00 572.00 moveto (Parameter View) show
 20.00 556.00 moveto (Date: Wednesday November 28 2007 15:21:54) show

% set footer font
/Helvetica findfont
9 scalefont
setfont

 20.00 228.00 moveto (Database files:) show
 20.00 212.00 moveto (- '/home/isolov/working/online/dal/data/schema/core.schema.xml') show
showpage
