%!PS-Adobe-2.0 EPSF-2.0
%%Creator: OKS Library, <Igor.Soloviev@cern.ch>, CERN
%%Title: unknown
%%BoundingBox: 20 287 822 534
%%Pages: 1
%%DocumentFonts: Helvetica-Narrow Times-Roman Helvetica
%%EndComments

% set image font
/Helvetica-Narrow findfont
10.68 scalefont
setfont

% draw in landscape mode
90 rotate  0 -595 translate

gsave
0.89 setlinewidth
0.00 0.00 0.00 setrgbcolor
 243.42 447.66 moveto 394.74 447.66 lineto stroke
 426.79 421.84 moveto 426.79 360.43 lineto stroke
 530.04 421.84 moveto 530.04 360.43 lineto stroke
 554.96 445.88 moveto 726.76 445.88 lineto stroke
 726.76 445.88 moveto 726.76 353.31 lineto stroke
 557.63 322.15 moveto 630.62 322.15 lineto stroke
grestore
gsave
1.78 setlinewidth
0.00 0.00 0.00 setrgbcolor
 631.51 352.42 moveto 816.66 352.42 lineto stroke
 816.66 352.42 moveto 816.66 291.00 lineto stroke
 631.51 352.42 moveto 631.51 291.00 lineto stroke
 631.51 291.00 moveto 816.66 291.00 lineto stroke
 631.51 331.94 moveto 816.66 331.94 lineto stroke
 631.51 296.34 moveto 816.66 296.34 lineto stroke
 403.64 359.54 moveto 556.74 359.54 lineto stroke
 556.74 359.54 moveto 556.74 298.12 lineto stroke
 403.64 359.54 moveto 403.64 298.12 lineto stroke
 403.64 298.12 moveto 556.74 298.12 lineto stroke
 403.64 339.06 moveto 556.74 339.06 lineto stroke
 403.64 303.46 moveto 556.74 303.46 lineto stroke
 395.63 468.13 moveto 554.07 468.13 lineto stroke
 554.07 468.13 moveto 554.07 422.73 lineto stroke
 395.63 468.13 moveto 395.63 422.73 lineto stroke
 395.63 422.73 moveto 554.07 422.73 lineto stroke
 395.63 447.66 moveto 554.07 447.66 lineto stroke
 395.63 428.08 moveto 554.07 428.08 lineto stroke
 26.23 527.77 moveto 242.53 527.77 lineto stroke
 242.53 527.77 moveto 242.53 306.13 lineto stroke
 26.23 527.77 moveto 26.23 306.13 lineto stroke
 26.23 306.13 moveto 242.53 306.13 lineto stroke
 26.23 507.30 moveto 242.53 507.30 lineto stroke
 26.23 375.56 moveto 242.53 375.56 lineto stroke
grestore
 251.43 453.89 moveto (ResourcesInfoConfiguration) show
 373.38 435.20 moveto (0..1) show
 430.35 388.02 moveto (GlobalFolder) show
 405.42 366.66 moveto (1..1) show
 533.60 388.02 moveto (DetectorFolders) show
 506.90 366.66 moveto (1..N) show
 574.55 452.11 moveto (DefaultDetectorSubFolders) show
 703.61 359.54 moveto (0..N) show
 566.53 328.38 moveto (SubFolders) show
 607.48 309.69 moveto (0..N) show
 636.85 338.17 moveto (ResourcesInfoDetectorFolderConfig) show
 635.07 318.59 moveto (FolderName: string) show
 635.07 302.57 moveto (BaseClasses: list of string) show
 408.98 345.29 moveto (ResourcesInfoDetectorConfig) show
 407.20 325.71 moveto (FolderName: string) show
 407.20 309.69 moveto (SubDetectorIDs: list of u8) show
 424.12 453.89 moveto (ResourcesInfoConfig) show
 399.19 434.31 moveto (ArchiveInCOOL: bool = 'false') show
 115.24 513.53 moveto (Partition) show
 29.79 493.94 moveto (RepositoryRoot: string) show
 29.79 477.92 moveto (IPCRef: string = '$\(TDAQ_IPC_INIT_REF\)') show
 29.79 461.90 moveto (DBPath: string = '$\(TDAQ_DB_PATH\)') show
 29.79 445.88 moveto (DBName: string = '$\(TDAQ_DB_DATA\)') show
 29.79 429.86 moveto (DBTechnology: enum = 'rdbconfig') show
 29.79 413.83 moveto (LogRoot: string = '/tmp') show
 29.79 397.81 moveto (WorkingDirectory: string = '/tmp') show
 29.79 381.79 moveto (RunTypes: list of string) show
 29.79 361.32 moveto (get_all_applications) show
 29.79 345.29 moveto (set_disabled) show
 29.79 329.27 moveto (set_enabled) show
 29.79 313.25 moveto (get_segment) show

% set header font
/Times-Roman findfont
14 scalefont
setfont

 20.00 569.00 moveto (Configuration Classes for the Resources Info Service) show
 20.00 548.00 moveto (Date: 2014-Oct-06 17:33:30) show

% set footer font
/Helvetica findfont
12 scalefont
setfont

 20.00 263.00 moveto (Database files:) show
 20.00 242.00 moveto (- 'dal/data/schema/core.schema.xml') show
showpage
