%!PS-Adobe-2.0 EPSF-2.0
%%Creator: OKS Library, <Igor.Soloviev@cern.ch>, CERN
%%Title: unknown
%%BoundingBox: 20 69 822 548
%%Pages: 1
%%DocumentFonts: Helvetica-Narrow Times-Roman Helvetica
%%EndComments

% set image font
/Helvetica-Narrow findfont
8.58 scalefont
setfont

% draw in landscape mode
90 rotate  0 -595 translate

gsave
0.71 setlinewidth
0.00 0.00 0.00 setrgbcolor
 348.81 265.66 moveto 344.52 259.22 lineto stroke
 348.81 265.66 moveto 353.09 259.22 lineto stroke
 344.52 259.22 moveto 348.81 252.79 lineto stroke
 353.09 259.22 moveto 348.81 252.79 lineto stroke
 348.81 252.79 moveto 348.81 244.21 lineto stroke
 348.81 244.21 moveto 348.81 244.21 lineto stroke
 348.81 244.21 moveto 348.81 178.45 lineto stroke
 382.40 322.84 moveto 376.68 311.40 lineto stroke
 382.40 322.84 moveto 388.12 311.40 lineto stroke
 376.68 311.40 moveto 388.12 311.40 lineto stroke
 382.40 311.40 moveto 382.40 299.97 lineto stroke
 382.40 299.97 moveto 350.95 299.97 lineto stroke
 350.95 299.97 moveto 350.95 290.67 lineto stroke
 393.12 167.73 moveto 441.01 167.73 lineto stroke
 350.95 322.84 moveto 350.95 309.97 lineto stroke
 350.95 309.97 moveto 199.41 309.97 lineto stroke
 199.41 309.97 moveto 199.41 280.67 lineto stroke
 377.40 437.21 moveto 371.68 425.77 lineto stroke
 377.40 437.21 moveto 383.12 425.77 lineto stroke
 371.68 425.77 moveto 383.12 425.77 lineto stroke
 377.40 425.77 moveto 377.40 395.03 lineto stroke
 377.40 395.03 moveto 364.53 395.03 lineto stroke
 364.53 395.03 moveto 364.53 386.46 lineto stroke
 382.40 322.84 moveto 376.68 311.40 lineto stroke
 382.40 322.84 moveto 388.12 311.40 lineto stroke
 376.68 311.40 moveto 388.12 311.40 lineto stroke
 382.40 311.40 moveto 382.40 299.97 lineto stroke
 382.40 299.97 moveto 409.56 299.97 lineto stroke
 409.56 299.97 moveto 409.56 292.10 lineto stroke
 377.40 437.21 moveto 371.68 425.77 lineto stroke
 377.40 437.21 moveto 383.12 425.77 lineto stroke
 371.68 425.77 moveto 383.12 425.77 lineto stroke
 377.40 425.77 moveto 377.40 395.03 lineto stroke
 377.40 395.03 moveto 469.61 395.03 lineto stroke
 469.61 395.03 moveto 469.61 385.74 lineto stroke
 804.13 481.52 moveto 804.13 105.54 lineto stroke
 804.13 105.54 moveto 165.10 105.54 lineto stroke
 165.10 105.54 moveto 165.10 242.78 lineto stroke
 234.44 242.78 moveto 228.72 231.35 lineto stroke
 234.44 242.78 moveto 240.16 231.35 lineto stroke
 228.72 231.35 moveto 240.16 231.35 lineto stroke
 234.44 231.35 moveto 234.44 198.47 lineto stroke
 234.44 198.47 moveto 246.59 198.47 lineto stroke
 246.59 198.47 moveto 246.59 192.75 lineto stroke
 234.44 242.78 moveto 228.72 231.35 lineto stroke
 234.44 242.78 moveto 240.16 231.35 lineto stroke
 228.72 231.35 moveto 240.16 231.35 lineto stroke
 234.44 231.35 moveto 234.44 198.47 lineto stroke
 234.44 198.47 moveto 213.71 198.47 lineto stroke
 213.71 198.47 moveto 213.71 192.75 lineto stroke
 207.99 192.75 moveto 207.99 242.78 lineto stroke
 505.35 204.18 moveto 499.63 192.75 lineto stroke
 505.35 204.18 moveto 511.06 192.75 lineto stroke
 499.63 192.75 moveto 511.06 192.75 lineto stroke
 505.35 192.75 moveto 505.35 179.88 lineto stroke
 210.14 435.06 moveto 204.42 423.63 lineto stroke
 210.14 435.06 moveto 215.85 423.63 lineto stroke
 204.42 423.63 moveto 215.85 423.63 lineto stroke
 210.14 423.63 moveto 210.14 400.75 lineto stroke
 210.14 400.75 moveto 275.90 400.75 lineto stroke
 275.90 400.75 moveto 275.90 394.32 lineto stroke
 210.14 435.06 moveto 204.42 423.63 lineto stroke
 210.14 435.06 moveto 215.85 423.63 lineto stroke
 204.42 423.63 moveto 215.85 423.63 lineto stroke
 210.14 423.63 moveto 210.14 400.75 lineto stroke
 210.14 400.75 moveto 183.69 400.75 lineto stroke
 183.69 400.75 moveto 183.69 394.32 lineto stroke
 323.07 467.94 moveto 275.18 467.94 lineto stroke
 683.33 481.52 moveto 677.61 470.09 lineto stroke
 683.33 481.52 moveto 689.05 470.09 lineto stroke
 677.61 470.09 moveto 689.05 470.09 lineto stroke
 683.33 470.09 moveto 683.33 464.37 lineto stroke
 683.33 464.37 moveto 716.21 464.37 lineto stroke
 716.21 464.37 moveto 716.21 455.79 lineto stroke
 734.08 430.77 moveto 734.08 184.17 lineto stroke
 686.19 430.77 moveto 686.19 184.17 lineto stroke
 430.29 504.40 moveto 671.18 504.40 lineto stroke
 388.83 437.21 moveto 388.83 417.91 lineto stroke
 388.83 417.91 moveto 504.63 417.91 lineto stroke
 536.08 456.51 moveto 531.79 462.94 lineto stroke
 536.08 456.51 moveto 540.37 462.94 lineto stroke
 531.79 462.94 moveto 536.08 469.37 lineto stroke
 540.37 462.94 moveto 536.08 469.37 lineto stroke
 536.08 469.37 moveto 536.08 488.67 lineto stroke
 536.08 488.67 moveto 430.29 488.67 lineto stroke
 671.18 537.99 moveto 617.57 537.99 lineto stroke
 617.57 537.99 moveto 617.57 523.70 lineto stroke
 617.57 523.70 moveto 671.18 523.70 lineto stroke
 812.71 481.52 moveto 812.71 87.67 lineto stroke
 812.71 87.67 moveto 108.63 87.67 lineto stroke
 108.63 87.67 moveto 108.63 125.56 lineto stroke
 683.33 481.52 moveto 677.61 470.09 lineto stroke
 683.33 481.52 moveto 689.05 470.09 lineto stroke
 677.61 470.09 moveto 689.05 470.09 lineto stroke
 683.33 470.09 moveto 683.33 464.37 lineto stroke
 683.33 464.37 moveto 603.27 464.37 lineto stroke
 603.27 464.37 moveto 603.27 456.51 lineto stroke
 614.71 392.89 moveto 614.71 175.59 lineto stroke
 614.71 175.59 moveto 565.39 175.59 lineto stroke
 565.39 160.58 moveto 576.83 154.86 lineto stroke
 565.39 160.58 moveto 576.83 166.30 lineto stroke
 576.83 166.30 moveto 576.83 154.86 lineto stroke
 576.83 160.58 moveto 680.47 160.58 lineto stroke
 276.61 129.13 moveto 276.61 121.27 lineto stroke
 276.61 121.27 moveto 711.21 121.27 lineto stroke
 711.21 121.27 moveto 711.21 146.29 lineto stroke
grestore
gsave
1.43 setlinewidth
0.00 0.00 0.00 setrgbcolor
 173.68 192.03 moveto 227.29 192.03 lineto stroke
 227.29 192.03 moveto 227.29 168.44 lineto stroke
 173.68 192.03 moveto 173.68 168.44 lineto stroke
 173.68 168.44 moveto 227.29 168.44 lineto stroke
 173.68 175.59 moveto 227.29 175.59 lineto stroke
 173.68 172.73 moveto 227.29 172.73 lineto stroke
 233.72 192.03 moveto 290.91 192.03 lineto stroke
 290.91 192.03 moveto 290.91 129.84 lineto stroke
 233.72 192.03 moveto 233.72 129.84 lineto stroke
 233.72 129.84 moveto 290.91 129.84 lineto stroke
 233.72 175.59 moveto 290.91 175.59 lineto stroke
 233.72 147.00 moveto 290.91 147.00 lineto stroke
 681.19 183.45 moveto 738.37 183.45 lineto stroke
 738.37 183.45 moveto 738.37 147.00 lineto stroke
 681.19 183.45 moveto 681.19 147.00 lineto stroke
 681.19 147.00 moveto 738.37 147.00 lineto stroke
 681.19 167.01 moveto 738.37 167.01 lineto stroke
 681.19 151.29 moveto 738.37 151.29 lineto stroke
 441.73 179.17 moveto 564.67 179.17 lineto stroke
 564.67 179.17 moveto 564.67 142.71 lineto stroke
 441.73 179.17 moveto 441.73 142.71 lineto stroke
 441.73 142.71 moveto 564.67 142.71 lineto stroke
 441.73 162.73 moveto 564.67 162.73 lineto stroke
 441.73 147.00 moveto 564.67 147.00 lineto stroke
 381.69 291.39 moveto 435.30 291.39 lineto stroke
 435.30 291.39 moveto 435.30 254.93 lineto stroke
 381.69 291.39 moveto 381.69 254.93 lineto stroke
 381.69 254.93 moveto 435.30 254.93 lineto stroke
 381.69 274.95 moveto 435.30 274.95 lineto stroke
 381.69 259.22 moveto 435.30 259.22 lineto stroke
 505.35 455.79 moveto 655.45 455.79 lineto stroke
 655.45 455.79 moveto 655.45 393.60 lineto stroke
 505.35 455.79 moveto 505.35 393.60 lineto stroke
 505.35 393.60 moveto 655.45 393.60 lineto stroke
 505.35 439.35 moveto 655.45 439.35 lineto stroke
 505.35 397.89 moveto 655.45 397.89 lineto stroke
 61.46 188.46 moveto 155.81 188.46 lineto stroke
 155.81 188.46 moveto 155.81 126.27 lineto stroke
 61.46 188.46 moveto 61.46 126.27 lineto stroke
 61.46 126.27 moveto 155.81 126.27 lineto stroke
 61.46 172.02 moveto 155.81 172.02 lineto stroke
 61.46 130.56 moveto 155.81 130.56 lineto stroke
 671.89 544.43 moveto 817.71 544.43 lineto stroke
 817.71 544.43 moveto 817.71 482.24 lineto stroke
 671.89 544.43 moveto 671.89 482.24 lineto stroke
 671.89 482.24 moveto 817.71 482.24 lineto stroke
 671.89 527.99 moveto 817.71 527.99 lineto stroke
 671.89 486.53 moveto 817.71 486.53 lineto stroke
 323.79 512.98 moveto 429.58 512.98 lineto stroke
 429.58 512.98 moveto 429.58 437.92 lineto stroke
 323.79 512.98 moveto 323.79 437.92 lineto stroke
 323.79 437.92 moveto 429.58 437.92 lineto stroke
 323.79 496.53 moveto 429.58 496.53 lineto stroke
 323.79 442.21 moveto 429.58 442.21 lineto stroke
 666.89 455.08 moveto 759.81 455.08 lineto stroke
 759.81 455.08 moveto 759.81 431.49 lineto stroke
 666.89 455.08 moveto 666.89 431.49 lineto stroke
 666.89 431.49 moveto 759.81 431.49 lineto stroke
 666.89 438.64 moveto 759.81 438.64 lineto stroke
 666.89 435.78 moveto 759.81 435.78 lineto stroke
 141.52 393.60 moveto 223.72 393.60 lineto stroke
 223.72 393.60 moveto 223.72 370.02 lineto stroke
 141.52 393.60 moveto 141.52 370.02 lineto stroke
 141.52 370.02 moveto 223.72 370.02 lineto stroke
 141.52 377.16 moveto 223.72 377.16 lineto stroke
 141.52 374.30 moveto 223.72 374.30 lineto stroke
 143.66 510.83 moveto 274.47 510.83 lineto stroke
 274.47 510.83 moveto 274.47 435.78 lineto stroke
 143.66 510.83 moveto 143.66 435.78 lineto stroke
 143.66 435.78 moveto 274.47 435.78 lineto stroke
 143.66 494.39 moveto 274.47 494.39 lineto stroke
 143.66 440.07 moveto 274.47 440.07 lineto stroke
 229.43 393.60 moveto 323.79 393.60 lineto stroke
 323.79 393.60 moveto 323.79 357.15 lineto stroke
 229.43 393.60 moveto 229.43 357.15 lineto stroke
 229.43 357.15 moveto 323.79 357.15 lineto stroke
 229.43 377.16 moveto 323.79 377.16 lineto stroke
 229.43 361.44 moveto 323.79 361.44 lineto stroke
 441.01 241.35 moveto 573.25 241.35 lineto stroke
 573.25 241.35 moveto 573.25 204.90 lineto stroke
 441.01 241.35 moveto 441.01 204.90 lineto stroke
 441.01 204.90 moveto 573.25 204.90 lineto stroke
 441.01 224.91 moveto 573.25 224.91 lineto stroke
 441.01 209.19 moveto 573.25 209.19 lineto stroke
 158.67 279.95 moveto 237.30 279.95 lineto stroke
 237.30 279.95 moveto 237.30 243.50 lineto stroke
 158.67 279.95 moveto 158.67 243.50 lineto stroke
 158.67 243.50 moveto 237.30 243.50 lineto stroke
 158.67 263.51 moveto 237.30 263.51 lineto stroke
 158.67 247.79 moveto 237.30 247.79 lineto stroke
 442.44 385.03 moveto 570.39 385.03 lineto stroke
 570.39 385.03 moveto 570.39 245.64 lineto stroke
 442.44 385.03 moveto 442.44 245.64 lineto stroke
 442.44 245.64 moveto 570.39 245.64 lineto stroke
 442.44 368.59 moveto 570.39 368.59 lineto stroke
 442.44 249.93 moveto 570.39 249.93 lineto stroke
 330.22 385.74 moveto 436.01 385.74 lineto stroke
 436.01 385.74 moveto 436.01 323.55 lineto stroke
 330.22 385.74 moveto 330.22 323.55 lineto stroke
 330.22 323.55 moveto 436.01 323.55 lineto stroke
 330.22 369.30 moveto 436.01 369.30 lineto stroke
 330.22 353.58 moveto 436.01 353.58 lineto stroke
 310.21 177.74 moveto 392.41 177.74 lineto stroke
 392.41 177.74 moveto 392.41 141.28 lineto stroke
 310.21 177.74 moveto 310.21 141.28 lineto stroke
 310.21 141.28 moveto 392.41 141.28 lineto stroke
 310.21 161.30 moveto 392.41 161.30 lineto stroke
 310.21 145.57 moveto 392.41 145.57 lineto stroke
 335.22 289.96 moveto 368.11 289.96 lineto stroke
 368.11 289.96 moveto 368.11 266.37 lineto stroke
 335.22 289.96 moveto 335.22 266.37 lineto stroke
 335.22 266.37 moveto 368.11 266.37 lineto stroke
 335.22 273.52 moveto 368.11 273.52 lineto stroke
 335.22 270.66 moveto 368.11 270.66 lineto stroke
grestore
 260.89 234.20 moveto (ExactImplementations) show
 330.22 183.45 moveto (0..N) show
 410.28 172.73 moveto (Tag) show
 423.86 157.72 moveto (1..1) show
 235.15 299.97 moveto (ProcessEnvironment) show
 180.83 285.67 moveto (0..N) show
 444.59 95.53 moveto (ProcessEnvironment) show
 168.68 232.78 moveto (0..N) show
 170.11 215.62 moveto (Contains) show
 211.57 232.78 moveto (1..N) show
 286.62 457.94 moveto (Needs) show
 278.76 472.95 moveto (0..N) show
 736.94 304.97 moveto (SharedLibraries) show
 715.50 189.17 moveto (1..N) show
 689.05 304.97 moveto (Binaries) show
 667.60 189.17 moveto (0..N) show
 541.80 509.40 moveto (Uses) show
 652.59 494.39 moveto (0..N) show
 391.69 425.06 moveto (BelongsTo) show
 487.48 407.90 moveto (1..1) show
 483.90 470.09 moveto (SW_Objects) show
 433.87 493.68 moveto (0..N) show
 620.43 528.70 moveto (Uses) show
 652.59 513.69 moveto (0..N) show
 412.42 77.66 moveto (AddProcessEnvironment) show
 112.21 115.55 moveto (0..N) show
 617.57 282.10 moveto (Tags) show
 568.96 180.60 moveto (1..N) show
 473.18 126.27 moveto (TagValues) show
 714.78 136.28 moveto (0..N) show
 177.97 180.60 moveto (VariableSet) show
 245.88 180.60 moveto (Variable) show
 236.58 164.87 moveto (Name: string) show
 236.58 152.00 moveto (Value: string) show
 236.58 135.56 moveto (get_value) show
 685.47 172.02 moveto (TagMapping) show
 684.04 156.29 moveto (Value: string) show
 496.05 167.73 moveto (Tag) show
 444.59 152.00 moveto (SW_Tag: enum = 'gcc47-opt') show
 397.41 279.95 moveto (Script) show
 384.55 264.23 moveto (Shell: string) show
 550.38 444.35 moveto (SW_Repository) show
 508.20 428.63 moveto (ISInfoDescriptionFiles: list of string) show
 508.20 415.76 moveto (IGUIProperties: list of string) show
 508.20 402.90 moveto (InstallationPathVariableName: string) show
 65.75 177.02 moveto (SW_PackageVariable) show
 64.32 161.30 moveto (Description: string) show
 64.32 148.43 moveto (Name: string) show
 64.32 135.56 moveto (Suffix: string) show
 718.35 532.99 moveto (SW_Package) show
 674.75 517.26 moveto (Name: string = 'Unknown SW') show
 674.75 504.40 moveto (InstallationPath: string = '/usr/local') show
 674.75 491.53 moveto (PatchArea: string) show
 354.52 501.54 moveto (SW_Object) show
 326.65 485.81 moveto (BinaryName: string) show
 326.65 472.95 moveto (Description: string) show
 326.65 460.08 moveto (Authors: list of string) show
 326.65 447.21 moveto (HelpURL: string = 'http://') show
 671.18 443.64 moveto (SW_ExternalPackage) show
 145.80 382.17 moveto (RM_SW_Resource) show
 181.54 499.39 moveto (RM_Resource) show
 146.52 483.67 moveto (Description: string) show
 146.52 470.80 moveto (MaxCopyPerPartition: s32 = '1') show
 146.52 457.94 moveto (MaxCopyTotal: s32 = '1') show
 146.52 445.07 moveto (HelpLink: string = 'http://') show
 239.44 382.17 moveto (RM_HW_Resource) show
 232.29 366.44 moveto (HardwareClass: string) show
 491.76 229.92 moveto (Platform) show
 443.87 214.19 moveto (HW_Tag: enum = 'x86_64-slc5') show
 178.68 268.52 moveto (Parameter) show
 161.53 252.79 moveto (Description: string) show
 480.33 373.59 moveto (FpgaProgram) show
 445.30 357.86 moveto (VersionID: u32 = '0x0') show
 445.30 345.00 moveto (CadProject: string) show
 445.30 332.13 moveto (CheckString: string) show
 445.30 319.27 moveto (Checksum: u32 = '0x0') show
 445.30 306.40 moveto (ChipType: string) show
 445.30 293.53 moveto (FlashRamBlock: u32 = '0x0') show
 445.30 280.67 moveto (SourceURL: string) show
 445.30 267.80 moveto (ProgramType: string = 'Invalid') show
 445.30 254.93 moveto (DeviceName: string = 'Invalid') show
 348.09 374.30 moveto (ComputerProgram) show
 333.08 358.58 moveto (DefaultParameters: string) show
 333.08 342.14 moveto (get_parameters) show
 333.08 329.27 moveto (get_info) show
 331.65 166.30 moveto (BinaryFile) show
 313.07 150.57 moveto (BinaryName: string) show
 339.51 278.52 moveto (Binary) show

% set header font
/Times-Roman findfont
10 scalefont
setfont

 20.00 573.00 moveto (Software Repository View) show
 20.00 558.00 moveto (Date: 2014-Oct-20 13:00:00) show

% set footer font
/Helvetica findfont
9 scalefont
setfont

 20.00 51.00 moveto (Database files:) show
 20.00 36.00 moveto (- 'dal/data/schema/core.schema.xml') show
showpage
